Event,Sex,Name,WeightClassKg,Division,Equipment,Age,Best3BenchKg,Bench4Kg,Best3DeadliftKg,Deadlift4Kg,TotalKg,Place
B,F,Nicole Yokley,44,RY,Raw,,37.5,,,,37.5,1
B,F,Emily Edwards,48,RT 16-17,Raw,16,37.5,,,,37.5,1
B,F,Sierra Fultz,52,RT 16-17,Raw,16,52.5,,,,52.5,1
B,F,Robin Shashana,56,RHS 14-15,Raw,15,40,,,,40,1
B,F,Debbie Christianson,60,R Open,Raw,35,,,,,,DQ
B,F,Gretchen Ashton,75,Open,Single-ply,42,90,,,,90,1
B,F,Susann Thompson,82.5,RM 40-44,Raw,40,70,,,,70,1
B,F,Sharon Pipes,90,RLM 60-64,Raw,63,47.5,,,,47.5,1
B,F,Sharon Pipes,90,RM 60-64,Raw,63,47.5,,,,47.5,1
B,F,Valerie Crowell,90+,RM 40-44,Raw,43,85,,,,85,1
D,F,Betty Lee,52,Open,Single-ply,38,,,152.5,,152.5,1
D,F,Nancy Edelson,90+,RM 40-44,Raw,40,,,,,,DQ
BD,F,Kendra Miller #1,30,RY 8-9,Raw,9,32.5,33.5,75,,107.5,1
BD,F,Kaitlin Miller,44,Open,Single-ply,11,40,,102.5,,142.5,1
BD,F,Sara Yu,56,Open,Single-ply,32,,,,,,DQ
BD,F,Josie Merrell,60,M 75-79,Single-ply,79,22.5,,55,,77.5,1
BD,F,Betty Kasoma,60,R JR,Raw,20,,,,,,DQ
BD,F,Jeri Haynes,60,RT 16-17,Raw,16,45,,102.5,,147.5,1
BD,F,Amanda Smith #3,60,RT 12-13,Raw,12,35,,92.5,,127.5,1
BD,F,Maureen Namubiru,67.5,RT 18-19,Raw,19,,,,,,DQ
BD,F,Gretchen Ashton,75,Life,Single-ply,42,90,,130,,220,1
BD,F,Gretchen Ashton,75,LM 40-44,Single-ply,42,90,,130,,220,1
BD,F,Gretchen Ashton,75,M 40-44,Single-ply,42,90,,130,,220,1
BD,F,Laura Ortega,75,Open,Single-ply,30,70,,157.5,,227.5,1
BD,F,Gretchen Ashton,75,Open,Single-ply,42,90,,130,,220,2
BD,F,Diana Vigario,82.5,R Open,Raw,36,77.5,,167.5,,245,1
BD,F,Brandy Harai,90+,R Open,Raw,,100,,185,,285,1
B,M,Rueben Hernandez,35,RY 8-9,Raw,9,27.5,,,,27.5,1
B,M,Zach Yokley,52,RT 14-15,Raw,15,55,,,,55,1
B,M,Gary Landess,60,RM 45-49,Raw,48,77.5,,,,77.5,1
B,M,Alex Martinez #1,67.5,M 40-44,Single-ply,42,140,140.5,,,,DQ
B,M,Roger Tinkham,67.5,RLM 45-49,Raw,47,82.5,,,,82.5,1
B,M,Roger Tinkham,67.5,RM 45-49,Raw,47,82.5,,,,82.5,1
B,M,Rickey Dale Crain,75,M 45-49,Single-ply,48,165,,,,165,1
B,M,John Lopez,75,M 65-69,Single-ply,65,115,,,,115,1
B,M,John Upton,75,M 75-79,Single-ply,78,97.5,,,,97.5,1
B,M,Bobby Short,75,RHS 16-17,Raw,16,115,,,,115,1
B,M,Bobby Short,75,RT 16-17,Raw,16,115,,,,115,1
B,M,Michael Weinstock,75,RT 16-17,Raw,16,70,,,,70,2
B,M,Randy Gallan,82.5,Life,Single-ply,39,155,,,,155,1
B,M,Timothy Kinney,82.5,Life,Single-ply,38,,,,,,DQ
B,M,Mitch Owen,82.5,LM 50-54,Single-ply,50,167.5,168.45,,,167.5,1
B,M,Mike Stainbrook,82.5,LM 65-69,Single-ply,65,90,,,,90,1
B,M,Mitch Owen,82.5,M 50-54,Single-ply,50,167.5,168.45,,,167.5,1
B,M,Rudy Lozano,82.5,M 60-64,Single-ply,62,162.5,165,,,162.5,1
B,M,Mike Stainbrook,82.5,M 65-69,Single-ply,65,90,,,,90,1
B,M,Neil Abery,82.5,Open,Single-ply,,,,,,,DQ
B,M,John Willams,82.5,RHS 16-17,Raw,17,100,,,,100,1
B,M,Mike Stainbrook,82.5,RLM 65-69,Raw,65,90,,,,90,1
B,M,Eli Silva,82.5,RM 50-54,Raw,50,102.5,,,,102.5,1
B,M,Ray Lopez,82.5,RM 65-69,Raw,65,127.5,,,,127.5,1
B,M,Mike Stainbrook,82.5,RM 65-69,Raw,65,90,,,,90,2
B,M,John Willams,82.5,RT 16-17,Raw,17,100,,,,100,1
B,M,Matt Maclachlan,82.5,RT 16-17,Raw,16,85,,,,85,2
B,M,Randy Gallan,82.5,Sub,Single-ply,39,155,,,,155,1
B,M,Timothy Kinney,82.5,Sub,Single-ply,38,,,,,,DQ
B,M,Chris Yokley,82.5,T 16-17,Single-ply,17,145,,,,145,1
B,M,Jon Yokley,90,Life,Single-ply,43,197.5,,,,197.5,1
B,M,Jon Yokley,90,LM 40-44,Single-ply,43,197.5,,,,197.5,1
B,M,Martin Drake,90,LM 50-54,Single-ply,50,157.5,,,,157.5,1
B,M,Gordon Tornberg,90,LM 70-74,Single-ply,71,72.5,,,,72.5,1
B,M,Henry Fultz,90,M 40-44,Single-ply,42,182.5,,,,182.5,1
B,M,Martin Drake,90,M 50-54,Single-ply,50,157.5,160.5,,,157.5,1
B,M,Thom Pionke,90,Novice,Single-ply,35,90,,,,90,1
B,M,Martin Drake,90,Open,Single-ply,50,157.5,,,,157.5,1
B,M,Sam Arase,90,R Law/Mil,Raw,43,185,187.5,,,185,1
B,M,Todd Campo,90,R Law/Mil,Raw,48,155,,,,155,2
B,M,Kevin Booker,90,R Open,Raw,,,,,,,DQ
B,M,Todd Campo,90,RM 45-49,Raw,48,155,,,,155,1
B,M,Gerry Ramsay,90,RM 45-49,Raw,46,,,,,,DQ
B,M,Todd Cathers,100,Life,Single-ply,33,162.5,,,,162.5,1
B,M,Ricardo Echeverria,100,M 45-49,Single-ply,,192.5,,,,192.5,1
B,M,Jerry Homer Sr,100,M 60-64,Single-ply,62,167.5,,,,167.5,1
B,M,Arnold Narenberg,100,M 60-64,Single-ply,60,,,,,,DQ
B,M,Matt Saunders,100,Open,Single-ply,,,,,,,DQ
B,M,Lee Short,100,R Law/Mil,Raw,40,122.5,,,,122.5,1
B,M,JG Allen,100,R Life,Raw,47,,,,,,DQ
B,M,Joseph George,100,RLM 50-54,Raw,53,105,,,,105,1
B,M,John Gilmour,100,RLM 75-79,Raw,79,95,,,,95,1
B,M,JG Allen,100,RM 45-49,Raw,47,,,,,,DQ
B,M,Melvin Stewart,100,RM 60-64,Raw,60,160,,,,160,1
B,M,Mo Rau,100,RM 60-64,Raw,63,110,,,,110,2
B,M,Gerald Fontaine,100,RM 65-69,Raw,69,120,,,,120,1
B,M,Al Pio,100,RM 70-74,Raw,71,170,,,,170,1
B,M,John Gilmour,100,RM 75-79,Raw,79,95,,,,95,1
B,M,Bob McIntyre,100,Sub,Single-ply,37,,,,,,DQ
B,M,Bob Dunham,110,Life,Single-ply,,,,,,,DQ
B,M,Eric Shimomi,110,M 40-44,Single-ply,41,152.5,,,,152.5,1
B,M,Richard Susman,110,M 45-49,Single-ply,45,137.5,,,,137.5,1
B,M,Daniel Smith III,110,M 55-59,Single-ply,58,182.5,,,,182.5,1
B,M,John Fehan,110,Open,Single-ply,,,,,,,DQ
B,M,Danny Medeiros,110,R JR,Raw,21,142.5,,,,142.5,1
B,M,Josh Akaka,110,R JR,Raw,,117.5,,,,117.5,2
B,M,Len Webb,110,R Life,Raw,30,195,,,,195,1
B,M,Michael Lohr,110,R Life,Raw,32,157.5,,,,157.5,2
B,M,William Harris,110,RLM 45-49,Raw,45,,,,,,DQ
B,M,Philip Johnson,125,M 45-49,Single-ply,,192.5,,,,192.5,1
B,M,Scott Hoekstra,125,R Open,Raw,35,212.5,215,,,212.5,1
B,M,Jeff Fahrenbruch,125,R Open,Raw,48,182.5,,,,182.5,2
B,M,Scott Hoekstra,125,R Sub,Raw,35,212.5,215,,,212.5,1
B,M,Neil Ferone,125,RLM 40-44,Raw,43,177.5,,,,177.5,1
B,M,Neil Ferone,125,RM 40-44,Raw,43,177.5,,,,177.5,1
B,M,Jeff Fahrenbruch,125,RM 45-49,Raw,48,182.5,,,,182.5,1
B,M,William Kanyr,125,RM 60-64,Raw,63,142.5,,,,142.5,1
B,M,John McIntyre #2,145,M 65-69,Raw,66,175,,,,175,1
B,M,Mario Arrendondo,145,R Law/Mil,Raw,25,190,,,,190,1
B,M,Mario Arrendondo,145,R Open,Raw,25,190,,,,190,1
B,M,Mike Earl,145,RLM 40-44,Raw,42,162.5,,,,162.5,1
B,M,Kealiki Kane,145+,RT 18-19,Raw,,175,,,,175,1
D,M,Joshua Campo,30,RY 6-7,Raw,6,,,45,51.5,45,1
D,M,Gary Landess,60,RM 45-49,Raw,48,,,155,,155,1
D,M,Alex Martinez #1,67.5,M 40-44,Single-ply,42,,,240,,,DQ
D,M,Jim Selby,67.5,M 70-74,Single-ply,73,,,102.5,,102.5,1
D,M,Israel Orais,67.5,Open,Single-ply,40,,,210,,210,1
D,M,Jim Selby,67.5,RLM 70-74,Raw,73,,,102.5,,102.5,1
D,M,Chris McGrail,75,JR,Single-ply,22,,,202.5,,202.5,1
D,M,William Croft,75,Life,Single-ply,35,,,257.5,,257.5,1
D,M,Ron Scott,75,LM 50-54,Single-ply,53,,,,,,DQ
D,M,Ron Scott,75,M 50-54,Single-ply,53,,,,,,DQ
D,M,Melvin Waldrop,75,M 50-54,Single-ply,52,,,,,,DQ
D,M,Chris McGrail,75,Law/Mil,Single-ply,22,,,202.5,,202.5,1
D,M,William Croft,75,Open,Single-ply,35,,,257.5,,257.5,1
D,M,Chris McGrail,75,Open,Single-ply,22,,,202.5,,202.5,2
D,M,Robert Stephan,75,RM 80-84,Raw,80,,,155,,155,1
D,M,William Croft,75,Sub,Single-ply,35,,,257.5,,257.5,1
D,M,Timothy Kinney,82.5,Life,Single-ply,38,,,,,,DQ
D,M,Mike Stainbrook,82.5,RLM 65-69,Raw,65,,,120,,120,1
D,M,Mike Stainbrook,82.5,RM 65-69,Raw,65,,,120,,120,1
D,M,Ramon Figueroa #1,82.5,RT 16-17,Raw,16,,,,,,DQ
D,M,Timothy Kinney,82.5,Sub,Single-ply,38,,,,,,DQ
D,M,Bob Crouch,90,M 55-59,Single-ply,59,,,185,,185,1
D,M,John Mendoza,90,Open,Single-ply,32,,,227.5,,227.5,1
D,M,Tanner Teal,90,R JR,Raw,20,,,220,,220,1
D,M,Rex Monohan,90,RLM 75-79,Raw,77,,,142.5,,142.5,1
D,M,Tom Smith #3,90,RM 55-59,Raw,55,,,245,,245,1
D,M,Austin DeMello,90,RM 70-74,Raw,72,,,157.5,,157.5,1
D,M,Kevin Fisher,100,M 45-49,Single-ply,47,,,290,,290,1
D,M,Don Imrie,100,M 50-54,Single-ply,51,,,220,,220,1
D,M,Bob Boyles,100,RM 40-44,Raw,44,,,270,273,270,1
D,M,Thomas Burke,110,Open,Single-ply,34,,,290,,290,1
D,M,Rich Brown,145,LM 40-44,Single-ply,42,,,277.5,,277.5,1
D,M,John Heldt,145,R Open,Raw,31,,,,,,DQ
D,M,Kealiki Kane,145+,RT 18-19,Raw,,,,227.5,,227.5,1
BD,M,Rickey L Crain,52,Open,Single-ply,12,42.5,,87.5,,130,1
BD,M,Michael Booker #1,52,R Open,Raw,20,160,163.5,150,,310,1
BD,M,Eric Mendoza,52,RHS 16-17,Raw,16,75,,125,,200,1
BD,M,Aaron Walker,52,RHS 16-17,Raw,16,,,,,,DQ
BD,M,Nick Rinderrer,52,T 14-15,Single-ply,14,82.5,,152.5,,235,1
BD,M,Jason Imamura,60,Open,Single-ply,25,125,,180,,305,1
BD,M,Michael Loaiza,60,RHS 16-17,Raw,17,,,,,,DQ
BD,M,Gary Landess,60,RLM 45-49,Raw,48,77.5,,155,,232.5,1
BD,M,Alex Martinez #1,67.5,M 40-44,Single-ply,42,140,140.5,240,,380,1
BD,M,Jim Selby,67.5,M 70-74,Single-ply,73,57.5,,102.5,,160,1
BD,M,Israel Orais,67.5,Open,Single-ply,40,137.5,,210,,347.5,1
BD,M,Lance Takao,67.5,R Open,Raw,29,140,140.5,232.5,,372.5,1
BD,M,Robert Ssimbwa Ssebuliba,67.5,R Open,Raw,26,,,,,,DQ
BD,M,Ismael Rodriguez,67.5,RHS 14-15,Raw,15,82.5,,117.5,,200,1
BD,M,Roland Rodriguez,67.5,RHS 16-17,Raw,17,110,,140,,250,1
BD,M,Johnny Hoyt,67.5,RHS 16-17,Raw,17,85,,157.5,,242.5,2
BD,M,Nick Holmes,67.5,RHS 16-17,Raw,17,57.5,,142.5,,200,3
BD,M,Jim Selby,67.5,RLM 70-74,Raw,73,57.5,,102.5,,160,1
BD,M,Patrick Dorner,67.5,RM 40-44,Raw,42,,,,,,DQ
BD,M,Brett Berteaux,67.5,RT 14-15,Raw,,70,,150,,220,1
BD,M,Bill Weinstock,75,LM 55-59,Single-ply,55,87.5,,207.5,,295,1
BD,M,Roger Merrell,75,M 80-84,Single-ply,82,35,,80,,115,1
BD,M,Mugerwa Sadiki,75,R JR,Raw,23,,,,,,DQ
BD,M,Miguel Perez #2,75,RHS 16-17,Raw,17,100,,140,,240,1
BD,M,Jim Naftel,75,RLM 55-59,Raw,59,70,,95,,165,1
BD,M,Jim Naftel,75,RM 55-59,Raw,59,70,,95,,165,1
BD,M,Jake Randleigh,75,RT 14-15,Raw,,107.5,108,145,,252.5,1
BD,M,Josh McHenry,82.5,JR,Single-ply,20,110,,185,,295,1
BD,M,Tom Wilson,82.5,M 50-54,Single-ply,53,135,,182.5,187.5,317.5,1
BD,M,David Hill,82.5,R Open,Raw,28,,,,,,DQ
BD,M,Samuel Iga,82.5,R Open,Raw,24,,,,,,DQ
BD,M,Ssali Sowedi,82.5,R Open,Raw,24,,,,,,DQ
BD,M,Mario Galeano,82.5,RHS 16-17,Raw,17,107.5,,142.5,,250,1
BD,M,Michael Ross,82.5,RHS 16-17,Raw,17,90,,142.5,,232.5,2
BD,M,Jonathan Uriarte,82.5,RHS 16-17,Raw,16,82.5,,132.5,,215,3
BD,M,Richard Simon,82.5,RM 70-74,Raw,70,102.5,,125,145,227.5,1
BD,M,JJ Talton,82.5,T 18-19,Single-ply,18,185,187.5,280,,465,1
BD,M,Chris Meier,90,Life,Single-ply,,192.5,,280,,472.5,1
BD,M,Bill Styles,90,M 40-44,Single-ply,41,120,,192.5,,312.5,1
BD,M,Rocky Gingg,90,M 45-49,Single-ply,47,,,,,,DQ
BD,M,Tom Jackson,90,M 45-49,Single-ply,46,,,,,,DQ
BD,M,Charley Jones,90,M 50-54,Single-ply,52,120,,185,,305,1
BD,M,Bill Styles,90,Law/Mil,Single-ply,41,120,,192.5,,312.5,1
BD,M,Brent Malicote,90,R Novice,Raw,30,110,,182.5,,292.5,1
BD,M,Chipper Settle,90,R Open,Raw,26,147.5,,232.5,,380,1
BD,M,Adrian Ramos,90,RHS 16-17,Raw,17,100,,205,,305,1
BD,M,Corey Saulpin,90,RHS 16-17,Raw,,100,,192.5,,292.5,2
BD,M,Brett Davis,90,RHS 16-17,Raw,17,107.5,,172.5,,280,3
BD,M,Bob Strange,90,RLM 60-64,Raw,64,137.5,,240,,377.5,1
BD,M,Rex Monohan,90,RLM 75-79,Raw,77,65,,142.5,,207.5,1
BD,M,Tom Smith #3,90,RM 55-59,Raw,55,117.5,,245,,362.5,1
BD,M,Dan Miesenbaugh,90,RT 18-19,Raw,,92.5,,177.5,,270,1
BD,M,Jim DeFoor,100,M 50-54,Single-ply,53,192.5,,277.5,,470,1
BD,M,John Peru,100,Open,Single-ply,29,200,,260,,460,1
BD,M,Shawn Watson,100,Open,Single-ply,26,157.5,,237.5,,395,2
BD,M,Steve Hendricks,100,R JR,Raw,,155,,227.5,,382.5,1
BD,M,Galon Hazlewood,100,R JR,Raw,20,142.5,,210,,352.5,2
BD,M,Keneke Ward,100,R JR,Raw,,100,,185,,285,3
BD,M,Jason Golec,100,R Life,Raw,27,170,,230,,400,1
BD,M,Steve Landry,100,R Open,Raw,,192.5,,290,,482.5,1
BD,M,Mitch Garvin,100,R Open,Raw,25,172.5,,220,,392.5,2
BD,M,Ed Berteaux,100,RLM 45-49,Raw,,155,,235,,390,1
BD,M,Bob Boyles,100,RM 40-44,Raw,44,150,,270,273,420,1
BD,M,Nathan Johansen,100,RM 40-44,Raw,43,135,,205,,340,2
BD,M,Fred Dionisopouls,100,RM 55-59,Raw,58,90,,127.5,,217.5,1
BD,M,Andrew Watt #1,100,RT 16-17,Raw,,95,,190,,285,1
BD,M,Branden Merklin,100,RT 16-17,Raw,17,65,,160,,225,2
BD,M,Ramon Figueroa #2,110,Law/Mil,Single-ply,48,160,,227.5,,387.5,1
BD,M,Eric Shimomi,110,M 40-44,Single-ply,41,152.5,,227.5,,380,1
BD,M,Daniel Smith III,110,M 55-59,Single-ply,58,182.5,,192.5,,375,1
BD,M,Vincent Garcia,110,Open,Single-ply,32,167.5,,227.5,,395,1
BD,M,Chris Millon,110,R JR,Raw,21,135,,202.5,,337.5,1
BD,M,Josh Akaka,110,R JR,Raw,,117.5,,215,,332.5,2
BD,M,Nathan Arthur,110,R Open,Raw,27,160,,265,,425,1
BD,M,Mark White,110,R Sub,Raw,37,152.5,,102.5,,255,1
BD,M,Justin Crite,110,RHS 18-19,Raw,18,137.5,,227.5,,365,1
BD,M,William Harris,110,RLM 45-49,Raw,45,,,,,,DQ
BD,M,Gene Abernathy,110,RLM 55-59,Raw,55,157.5,,232.5,,390,1
BD,M,Thomas Schade,110,RM 40-44,Raw,41,192.5,,272.5,,465,1
BD,M,Jerry Pritchett,125,JR,Single-ply,20,192.5,,307.5,,500,1
BD,M,Dan Smith,125,LM 40-44,Single-ply,43,190,,205,,395,1
BD,M,Chuck McGuire,125,M 40-44,Single-ply,41,,,,,,DQ
BD,M,Patrick Holloway,125,Open,Single-ply,34,225,,322.5,,547.5,1
BD,M,Jerry Pritchett,125,Open,Single-ply,20,192.5,,307.5,,500,2
BD,M,Robert Speno,125,Open,Single-ply,32,205,,280,,485,3
BD,M,Greg Payne,125,R Open,Raw,36,215,,330,,545,1
BD,M,Brett Williams,125,RM 40-44,Raw,43,,,,,,DQ
BD,M,Christian Sanchez,125,RT 16-17,Raw,16,110,,222.5,228.5,332.5,1
BD,M,John Heldt,145,R Open,Raw,31,162.5,,225,,387.5,1
BD,M,Keith Ward,145,RM 45-49,Raw,45,125,,185,,310,1
BD,M,Dave Dreyer,145,RM 50-54,Raw,50,155,,265,,420,1
B,M,William Anderson,145+,Open,Single-ply,38,190,,,,190,1
BD,M,Joshua Weaver,145+,RHS 16-17,Raw,17,110,,175,,285,1
B,M,Kealiki Kane,145+,RT 18-19,Raw,,175,,,,175,1
