Place,Name,Sex,Age,BirthDate,Equipment,Division,BodyweightKg,WeightClassKg,Squat1Kg,Squat2Kg,Squat3Kg,Best3SquatKg,Bench1Kg,Bench2Kg,Bench3Kg,Best3BenchKg,Deadlift1Kg,Deadlift2Kg,Deadlift3Kg,Best3DeadliftKg,TotalKg,Event
1,Jen Smith #1,F,28,,Raw,F-OR,55.7,56,155,162.5,167.5,167.5,107.5,-115,115,115,185,195,200,200,482.5,SBD
2,Ellescia Phung,F,23,,Raw,F-OR,56,56,112.5,-120,-120,112.5,80,82.5,85,85,152.5,-162.5,-162.5,152.5,350,SBD
3,Deborah Mooney,F,35,,Raw,F-OR,55.9,56,110,115,120,120,55,57.5,-60,57.5,137.5,145,-150,145,322.5,SBD
1,Sionell Urlich,F,25,,Raw,F-OR,58.5,60,120,130,135,135,77.5,82.5,85,85,160,170,-177.5,170,390,SBD
2,Anna Bailey #1,F,35,,Raw,F-OR,59.8,60,107.5,115,-120,115,65,-70,-70,65,165,180,190,190,370,SBD
3,Brigot Pugh,F,47,,Raw,F-OR,56.4,60,115,-125,-125,115,67.5,-70,70,70,170,-185,,170,355,SBD
1,Alicia Smith,F,32,,Raw,F-OR,66.9,67.5,150,-160,160,160,85,90,92.5,92.5,170,182.5,192.5,192.5,445,SBD
2,Janelle Chamberlin,F,48,,Raw,F-OR,67.1,67.5,135,145,155,155,72.5,77.5,-80,77.5,155,165,172.5,172.5,405,SBD
3,Samantha Wolfe,F,34,,Raw,F-OR,66.9,67.5,130,140,-145,140,85,90,95,95,-142.5,155,165,165,400,SBD
4,Ariel Symon,F,29,,Raw,F-OR,65.3,67.5,132.5,137.5,142.5,142.5,85,90,95,95,145,155,160,160,397.5,SBD
5,Corinne Wooden,F,23,,Raw,F-OR,66,67.5,135,145,152.5,152.5,67.5,72.5,77.5,77.5,135,150,160,160,390,SBD
6,Edwina Vejayaratnam,F,29,,Raw,F-OR,67.1,67.5,130,140,147.5,147.5,70,75,-77.5,75,140,152.5,162.5,162.5,385,SBD
7,Rachael Fisher,F,31,,Raw,F-OR,67,67.5,112.5,-117.5,117.5,117.5,75,80,-82.5,80,150,160,-172.5,160,357.5,SBD
8,Zoe Makris,F,21,,Raw,F-OR,62.1,67.5,90,-97.5,107.5,107.5,50,57.5,-67.5,57.5,100,110,120,120,285,SBD
1,Joanne Greagen,F,40,,Raw,F-OR,74.1,75,140,155,162.5,162.5,95,102.5,107.5,107.5,170,180,190,190,460,SBD
2,Natasha Kadarusman,F,24,,Raw,F-OR,73.2,75,152.5,165,172.5,172.5,72.5,77.5,82.5,82.5,165,180,187.5,187.5,442.5,SBD
3,Selina Hampson,F,27,,Raw,F-OR,71.7,75,-150,150,157.5,157.5,80,82.5,85,85,175,182.5,-192.5,182.5,425,SBD
4,Alyrah Forrest,F,26,,Raw,F-OR,72.1,75,160,170,-177.5,170,77.5,82.5,-85,82.5,170,-180,-180,170,422.5,SBD
5,Veronica Azer,F,26,,Raw,F-OR,74.4,75,135,140,-147.5,140,50,55,60,60,140,150,160,160,360,SBD
6,Ellie Won,F,39,,Raw,F-OR,74.1,75,125,130,137.5,137.5,47.5,52.5,-57.5,52.5,130,-137.5,137.5,137.5,327.5,SBD
1,Medina Hajdarevic,F,31,,Raw,F-OR,82.3,82.5,165,172.5,-180,172.5,-85,90,92.5,92.5,180,190,200,200,465,SBD
2,Dakoda Plumridge,F,30,,Raw,F-OR,81.5,82.5,130,140,150,150,95,100,102.5,102.5,170,180,190,190,442.5,SBD
3,Tori Riganias,F,24,,Raw,F-OR,75.8,82.5,135,150,155,155,65,70,-72.5,70,130,145,165,165,390,SBD
4,Brooke Prichard,F,30,,Raw,F-OR,79.8,82.5,-105,110,115,115,65,70,75,75,180,190,200,200,390,SBD
5,Marie Corrone,F,35,,Raw,F-OR,81.8,82.5,115,125,132.5,132.5,62.5,67.5,70,70,140,150,160,160,362.5,SBD
DQ,Emma Clayson,F,31,,Raw,F-OR,78.8,82.5,-135,-140,-140,,90,95,-100,95,170,180,-185,180,,SBD
1,Nolene Kingi,F,40,,Raw,F-OR,107.5,90+,-195,205,215,215,100,110,117.5,117.5,195,210,222.5,222.5,555,SBD
2,Carli Noble,F,33,,Raw,F-OR,119.9,90+,-152.5,-160,160,160,90,95,102.5,102.5,167.5,182.5,192.5,192.5,455,SBD
3,Natalie Stone,F,30,,Raw,F-OR,95.2,90+,-137.5,-145,145,145,77.5,85,90,90,135,145,155,155,390,SBD
4,Melanie Willems,F,29,,Raw,F-OR,107.6,90+,132.5,140,147.5,147.5,57.5,62.5,67.5,67.5,155,165,172.5,172.5,387.5,SBD
4,Tiff Cole,F,26,,Raw,F-OR,66.2,67.5,,,,,80,-85,-85,80,,,,,80,B
5,Alison Andric,F,55,,Raw,F-OR,63.9,67.5,,,,,77.5,-82.5,-82.5,77.5,,,,,77.5,B
1,Alex McNeill,F,28,,Raw,F-OR,68,75,,,,,107.5,112.5,120,120,,,,,120,B
3,Tyla Bradley,F,23,,Raw,F-OR,67.8,75,,,,,85,87.5,-92.5,87.5,,,,,87.5,B
2,Liz Blackthorn,F,30,,Raw,F-OR,85.9,90,,,,,92.5,102.5,-105,102.5,,,,,102.5,B
6,Jo-Anne Edwards,F,51,,Raw,F-OR,83.8,90,,,,,87.5,-95,-95,87.5,,,,,87.5,B
4,Ishbel Graham,F,20,,Raw,F-OR,56,56,,,,,,,,,135,145,155,155,155,D
5,Tiff Cole,F,26,,Raw,F-OR,66.2,67.5,,,,,,,,,150,170,-182.5,170,170,D
3,Tyla Bradley,F,23,,Raw,F-OR,67.8,75,,,,,,,,,170,175,182.5,182.5,182.5,D
2,Tayla Bogle,F,23,,Raw,F-OR,74.2,75,,,,,,,,,130,140,150,150,150,D
2,Brooke Morris,F,21,,Raw,F-OR,76,82.5,,,,,,,,,195,210,-217.5,210,210,D
1,Lydia Hantke,F,44,,Raw,F-OR,90.2,90+,,,,,,,,,240,252.5,262.5,262.5,262.5,D
1,Patrick Bolin,M,24,,Raw,M-OR,74.5,75,217.5,235,245,245,140,147.5,-155,147.5,215,235,250,250,642.5,SBD
1,Emilio Caliao,M,24,,Raw,M-OR,82.1,82.5,245,255,260,260,165,-172.5,-172.5,165,300,317.5,-325,317.5,742.5,SBD
2,Mathew Tinson,M,31,,Raw,M-OR,81.3,82.5,235,250,-260,250,155,165,172.5,172.5,255,272.5,285,285,707.5,SBD
3,Ben Sellars,M,36,,Raw,M-OR,82.3,82.5,230,250,,250,160,170,175,175,245,262.5,-272.5,262.5,687.5,SBD
4,William Warton,M,23,,Raw,M-OR,79.9,82.5,225,237.5,245,245,135,142.5,147.5,147.5,225,245,260,260,652.5,SBD
5,Jack Barry,M,23,,Raw,M-OR,82.3,82.5,205,215,222.5,222.5,130,135,-137.5,135,230,245,260,260,617.5,SBD
6,Cooper Wilkie,M,17,,Raw,M-OR,81.2,82.5,200,207.5,215,215,117.5,125,132.5,132.5,225,232.5,242.5,242.5,590,SBD
7,Kevin Lengwath,M,23,,Raw,M-OR,76.3,82.5,190,197.5,205,205,-112.5,112.5,-120,112.5,247.5,-265,-300,247.5,565,SBD
1,Joshua Tukua,M,29,,Raw,M-OR,89,90,275,290,-300,290,180,-185,-187.5,180,300,-325,-325,300,770,SBD
2,Jason Stoupas,M,25,,Raw,M-OR,89.1,90,250,265,-280,265,150,160,165,165,290,,,290,720,SBD
3,Liam Belcher,M,32,,Raw,M-OR,89.4,90,235,250,260,260,152.5,162.5,170,170,265,280,-290,280,710,SBD
1,Scott Hill #1,M,44,,Raw,M-OR,99.9,100,265,282.5,-290,282.5,175,185,190,190,260,275,280,280,752.5,SBD
2,Oliver George,M,23,,Raw,M-OR,95.7,100,252.5,270,,270,-142.5,142.5,152.5,152.5,265,285,302.5,302.5,725,SBD
3,Alex Deken,M,30,,Raw,M-OR,96.4,100,220,240,260,260,175,190,200,200,220,240,265,265,725,SBD
4,Jason Clark,M,21,,Raw,M-OR,99.4,100,195,210,225,225,147.5,155,157.5,157.5,260,-285,285,285,667.5,SBD
5,Clay Scott,M,32,,Raw,M-OR,98,100,220,235,245,245,150,160,-165,160,240,255,-265,255,660,SBD
1,Jackson Myles,M,24,,Raw,M-OR,110,110,-260,275,290,290,190,202.5,210,210,295,315,-330,315,815,SBD
2,Shannan Thompson,M,26,,Raw,M-OR,109.6,110,275,290,300,300,160,-170,175,175,290,315,-325,315,790,SBD
3,Tom Glover,M,23,,Raw,M-OR,108,110,245,265,275,275,175,190,-200,190,265,285,300,300,765,SBD
4,Nicholas Vasiliadis,M,24,,Raw,M-OR,109.2,110,250,270,280,280,160,170,177.5,177.5,260,285,300,300,757.5,SBD
5,Remy Burns,M,21,,Raw,M-OR,103.8,110,255,270,-275,270,-172.5,172.5,-180,172.5,275,290,-300,290,732.5,SBD
6,Charlie Athanassiou,M,,,Raw,M-OR,107.8,110,250,265,277.5,277.5,-165,170,175,175,280,-300,-312.5,280,732.5,SBD
7,David Dobson,M,24,,Raw,M-OR,107.3,110,-265,265,280,280,167.5,177.5,-185,177.5,255,270,-280,270,727.5,SBD
8,Josh Sim,M,23,,Raw,M-OR,105.3,110,230,245,252.5,252.5,180,190,-200,190,230,245,262.5,262.5,705,SBD
1,Thanh Nguyen #1,M,28,,Raw,M-OR,120.8,125,275,305,310,310,150,162.5,-167.5,162.5,305,335,-350,335,807.5,SBD
2,Shaun Mishler,M,36,,Raw,M-OR,124.5,125,240,250,,250,190,-202.5,202.5,202.5,290,310,-317.5,310,762.5,SBD
1,Zen Hastings,M,35,,Raw,M-OR,132.5,140,255,270,280,280,195,205,-212.5,205,260,282.5,290,290,775,SBD
8,Mario Llamos,M,30,,Raw,M-OR,80.3,82.5,,,,,140,-145,-145,140,,,,,140,B
7,Aaron Prasad,M,25,,Raw,M-OR,92,100,,,,,155,-162.5,-165,155,,,,,155,B
2,Caleb Voice,M,32,,Raw,M-OR,109,110,,,,,250,265,-272.5,265,,,,,265,B
4,Matthew McKay,M,30,,Raw,M-OR,101.7,110,,,,,170,180,190,190,,,,,190,B
5,Brayden Vit,M,25,,Raw,M-OR,101.9,110,,,,,190,-200,-200,190,,,,,190,B
6,Tom Matthews,M,20,,Raw,M-OR,118,125,,,,,172.5,-177.5,-177.5,172.5,,,,,172.5,B
9,Chris Mallett,M,36,,Raw,M-OR,111.6,125,,,,,160,-170,-180,160,,,,,160,B
1,Andrew Cooper #1,M,44,,Raw,M-OR,152.5,140+,,,,,-280,290,300,300,,,,,300,B
3,Luke Poli,M,44,,Raw,M-OR,157.4,140+,,,,,245,-255,,245,,,,,245,B
10,Alex Lawson #1,M,35,,Raw,M-OR,160,140+,,,,,155,-170,-170,155,,,,,155,B
9,Jackson Steele,M,18,,Raw,M-OR,63.2,67.5,,,,,,,,,-180,180,-192.5,180,180,D
8,Wayne Belcher,M,62,,Raw,M-OR,73.3,75,,,,,,,,,195,210,215,215,215,D
5,Ryan Austen,M,41,,Raw,M-OR,89.9,90,,,,,,,,,265,275,-282.5,275,275,D
6,Lachlan Firth,M,21,,Raw,M-OR,90,90,,,,,,,,,260,-275,-280,260,260,D
7,Ronan Pritchard,M,22,,Raw,M-OR,87.9,90,,,,,,,,,225,237.5,250,250,250,D
3,Gus Cooke,M,32,,Raw,M-OR,108.4,110,,,,,,,,,285,307.5,-317.5,307.5,307.5,D
10,Beau Nixon,M,21,,Raw,M-OR,108.2,110,,,,,,,,,205,222.5,-230,222.5,222.5,D
1,Thomas Lilley,M,32,,Raw,M-OR,113.5,125,,,,,,,,,310,320,335,335,335,D
2,Douglas Grey-Hull,M,31,,Raw,M-OR,118.1,125,,,,,,,,,300,315,-325,315,315,D
4,Terry Sparkes,M,37,,Raw,M-OR,134.5,140,,,,,,,,,290,320,-360,320,320,D
