Division,WeightClassKg,Place,Name,Team,BodyweightKg,Best3SquatKg,Best3BenchKg,Best3DeadliftKg,TotalKg,Equipment,Event,Sex
Boys,51.71,1,Tyce Johnson,Bullard,49.26,111.13,72.57,124.74,308.44,Single-ply,SBD,M
Boys,51.71,2,Daniel Irvin,Longview Pine Tree,49.44,92.99,61.23,92.99,247.21,Single-ply,SBD,M
Boys,51.71,3,Noel Martin,Bullard,51.71,81.65,56.7,97.52,235.87,Single-ply,SBD,M
Boys,55.79,1,Eric Reaper,Tyler Chapel Hill,55.79,176.9,111.13,170.1,458.13,Single-ply,SBD,M
Boys,55.79,2,Carter Winegeart,Tyler Lee,54.52,154.22,77.11,161.03,392.36,Single-ply,SBD,M
Boys,55.79,3,Angel Barrosso,Tyler Chapel Hill,53.34,142.88,90.72,136.08,369.68,Single-ply,SBD,M
Boys,55.79,4,Landon Warren,Bullard,55.52,124.74,86.18,156.49,367.41,Single-ply,SBD,M
Boys,55.79,5,Elijah Grogan,Tyler Lee,55.79,104.33,56.7,124.74,285.76,Single-ply,SBD,M
Boys,55.79,6,Jacob Gray,Longview Pine Tree,52.71,83.91,47.63,104.33,235.87,Single-ply,SBD,M
Boys,59.87,1,Walter Jones,Laird Hill Leveretts Chapel,59.87,124.74,68.04,127.01,319.78,Single-ply,SBD,M
Boys,59.87,2,Giovanni Morales,Henderson,59.42,106.59,65.77,120.2,292.57,Single-ply,SBD,M
Boys,59.87,DQ,Tyson Pierce,Henderson,56.79,106.59,,,,Single-ply,SBD,M
Boys,67.13,1,Damion Brown,Bullard,66.13,195.04,127.01,181.44,503.49,Single-ply,SBD,M
Boys,67.13,2,Orran Simmons,Longview Pine Tree,66.22,167.83,102.06,172.37,442.25,Single-ply,SBD,M
Boys,67.13,3,Bryce Gregory,Tyler Lee,67.04,136.08,83.91,156.49,376.48,Single-ply,SBD,M
Boys,67.13,4,Sydney McElroy,Tyler Chapel Hill,66.13,154.22,83.91,131.54,369.68,Single-ply,SBD,M
Boys,67.13,5,Jamar Arceneaux,Tyler Lee,66.5,140.61,70.31,154.22,365.14,Single-ply,SBD,M
Boys,67.13,6,Julian Fierros,Longview Pine Tree,65.14,142.88,92.99,127.01,362.87,Single-ply,SBD,M
Boys,67.13,7,John Engle,Bullard,66.22,124.74,88.45,129.27,342.46,Single-ply,SBD,M
Boys,67.13,8,Korbin Craig,Laird Hill Leveretts Chapel,60.96,81.65,52.16,81.65,215.46,Single-ply,SBD,M
Boys,67.13,9,Tristan Larson,Tyler Chapel Hill,61.51,181.44,,,181.44,Single-ply,S,M
Boys,67.13,DQ,John Cunyus,Henderson,67.13,,,,,Single-ply,S,M
Boys,74.84,1,Chris Galvan #1,Jacksonville,73.03,206.38,124.74,215.46,546.58,Single-ply,SBD,M
Boys,74.84,2,Jamichael Turman,Tyler Lee,69.13,188.24,86.18,174.63,449.06,Single-ply,SBD,M
Boys,74.84,3,Keyshawn Rivas,Tyler Lee,73.75,149.69,79.38,136.08,365.14,Single-ply,SBD,M
Boys,74.84,4,Caleb James,Longview Pine Tree,72.85,117.93,68.04,163.29,349.27,Single-ply,SBD,M
Boys,74.84,5,Gerardo Ramirez,Jacksonville,69.49,124.74,74.84,127.01,326.59,Single-ply,SBD,M
Boys,74.84,6,Dawson Blear,Laird Hill Leveretts Chapel,70.22,127.01,70.31,102.06,299.37,Single-ply,SBD,M
Boys,74.84,7,Jacob Waddill,Bullard,73.48,74.84,54.43,142.88,272.16,Single-ply,SBD,M
Boys,82.1,1,Micah Beale,Jacksonville,80.56,215.46,124.74,219.99,560.19,Single-ply,SBD,M
Boys,82.1,2,Jansen Mattingly,Bullard,79.11,204.12,129.27,215.46,548.85,Single-ply,SBD,M
Boys,82.1,3,Reece Ricketts,Bullard,79.65,190.51,120.2,192.78,503.49,Single-ply,SBD,M
Boys,82.1,4,Jayden Smith #1,Longview Pine Tree,81.92,204.12,95.25,190.51,489.88,Single-ply,SBD,M
Boys,82.1,5,Jared McLean,Tyler Lee,78.83,183.7,97.52,195.04,476.27,Single-ply,SBD,M
Boys,82.1,6,Keaton Hilliard,Tyler Chapel Hill,77.75,170.1,117.93,181.44,469.47,Single-ply,SBD,M
Boys,82.1,7,Jordan Husketh,Tyler Lee,81.83,165.56,90.72,170.1,426.38,Single-ply,SBD,M
Boys,82.1,8,Deaundre Heath,Longview Pine Tree,79.56,154.22,86.18,165.56,405.97,Single-ply,SBD,M
Boys,82.1,9,Brenden Collins,Henderson,79.29,136.08,68.04,156.49,360.61,Single-ply,SBD,M
Boys,89.81,1,Zach Cooke,Henderson,84.28,213.19,142.88,201.85,557.92,Single-ply,SBD,M
Boys,89.81,2,Oscar Arellano,Jacksonville,85.82,204.12,120.2,208.65,532.97,Single-ply,SBD,M
Boys,89.81,3,Noah Springer,Tyler Lee,85.46,183.7,108.86,176.9,469.47,Single-ply,SBD,M
Boys,89.81,4,Cameron Castles,Henderson,84.28,195.04,111.13,151.95,458.13,Single-ply,SBD,M
Boys,89.81,5,Erick Burns,Laird Hill Leveretts Chapel,86.73,149.69,81.65,136.08,367.41,Single-ply,SBD,M
Boys,89.81,6,Andrew Thomas,Henderson,89.81,113.4,79.38,142.88,335.66,Single-ply,SBD,M
Boys,99.79,1,Coltin Paskey,Tyler Chapel Hill,99.79,226.8,145.15,192.78,564.72,Single-ply,SBD,M
Boys,99.79,2,Jay'Quan Barnett,Henderson,91.63,204.12,102.06,192.78,498.95,Single-ply,SBD,M
Boys,99.79,3,Seth Akin,Longview Pine Tree,94.17,167.83,92.99,208.65,469.47,Single-ply,SBD,M
Boys,99.79,4,Jackson Smith,Tyler Chapel Hill,97.25,158.76,99.79,181.44,439.98,Single-ply,SBD,M
Boys,99.79,5,Teon Dunkley,Tyler Lee,93.89,158.76,102.06,156.49,417.3,Single-ply,SBD,M
Boys,99.79,6,Jeremy Singleton,Jacksonville,96.8,158.76,104.33,145.15,408.23,Single-ply,SBD,M
Boys,109.77,1,Clayton Conrad,Henderson,100.61,204.12,111.13,201.85,517.1,Single-ply,SBD,M
Boys,109.77,2,Alexander Bearden,Longview Pine Tree,102.15,190.51,111.13,174.63,476.27,Single-ply,SBD,M
Boys,109.77,3,Taylor Swinney,Jacksonville,103.15,156.49,113.4,165.56,435.45,Single-ply,SBD,M
Boys,109.77,4,Marco Nunez,Jacksonville,109.68,154.22,97.52,154.22,405.97,Single-ply,SBD,M
Boys,109.77,5,Carson Wilborn,Bullard,109.59,170.1,90.72,142.88,403.7,Single-ply,SBD,M
Boys,109.77,6,Blake Morse,Bullard,100.61,142.88,90.72,122.47,356.07,Single-ply,SBD,M
Boys,109.77,7,James Burns #1,Jacksonville,103.42,122.47,92.99,138.35,353.8,Single-ply,SBD,M
Boys,124.74,1,Beaux Limmer,Tyler Lee,117.84,226.8,158.76,219.99,605.55,Single-ply,SBD,M
Boys,124.74,2,Keith Burkes,Longview Pine Tree,123.1,229.06,120.2,208.65,557.92,Single-ply,SBD,M
Boys,124.74,3,Nate Kuehn,Tyler Lee,114.4,215.46,120.2,208.65,544.31,Single-ply,SBD,M
Boys,124.74,4,Roberto Miranda,Henderson,111.58,195.04,115.67,188.24,498.95,Single-ply,SBD,M
Boys,124.74,5,Carson Stokes,Tyler Lee,120.56,213.19,102.06,183.7,498.95,Single-ply,SBD,M
Boys,124.74,6,Michael Sutton,Tyler Chapel Hill,122.74,181.44,104.33,183.7,469.47,Single-ply,SBD,M
Boys,124.74+,1,John Campbell,Bullard,137.44,281.23,145.15,208.65,635.03,Single-ply,SBD,M
Boys,124.74+,2,Joshua McClaskey,Tyler Lee,140.89,204.12,111.13,183.7,498.95,Single-ply,SBD,M
Boys,124.74+,3,Hunter Jernigan,Tyler Lee,126.64,183.7,113.4,190.51,487.61,Single-ply,SBD,M
Boys,124.74+,4,Kyan Milton,Tyler Lee,129.73,183.7,104.33,174.63,462.66,Single-ply,SBD,M
Boys,124.74+,5,Jacob Nichols,Henderson,152.68,154.22,111.13,163.29,428.64,Single-ply,SBD,M
Boys,124.74+,6,Tanner Hathaway,Bullard,129.82,154.22,70.31,124.74,349.27,Single-ply,SBD,M
