Tested,Equipment,Place,Name,Division,BirthYear,Country,BodyweightKg,Squat1Kg,Squat2Kg,Squat3Kg,Best3SquatKg,Bench1Kg,Bench2Kg,Bench3Kg,Best3BenchKg,Deadlift1Kg,Deadlift2Kg,Deadlift3Kg,Best3DeadliftKg,TotalKg,WeightClassKg,Sex,CyrillicName,Event,Bench4Kg,Deadlift4Kg
No,Wraps,1,Sofya Evtushenko,Pro Teen 18-19,1994,Russia,47,52.5,57,-62.5,57,35,37.5,-40,37.5,85,90,95,95,189.5,48,F,Софья Евтушенко,SBD,,
No,Wraps,1,Polina Koledaeva,Pro Teen 18-19,1994,Russia,54.25,62.5,-67.5,-67.5,62.5,40,42.5,45,45,90,100,105,105,212.5,56,F,Полина Коледаева,SBD,,
No,Wraps,1,Anastasiya Amelina,Pro Open,1988,Russia,59.85,142.5,152.5,157.5,157.5,72.5,77.5,-80,77.5,150,160,-170.5,160,395,60,F,Анастасия Амелина,SBD,,
No,Wraps,1,Natalya Kukushkina,Pro Open,1982,Russia,66.6,-75,80,85,85,40,-45,45,45,100,107,115,115,245,67.5,F,Наталья Кукушкина,SBD,,
No,Wraps,1,Olga Gerasimyuk,Pro Open,1996,Russia,73.4,110,120,-130,120,65,70,75,75,-140,140,150,150,345,75,F,Ольга Герасимюк,SBD,,
No,Wraps,1,Alena Volferts,Pro Open,1992,Russia,72.5,85,90,-95,90,50,52.5,55,55,120,127.5,130,130,275,75,F,Алена Вольферц,SBD,,
No,Wraps,1,Denis Vodolazskiy,Pro Teen 13,2001,Russia,39.3,45,-60,60,60,25,30,-32.5,30,80,-85,-85,80,170,44,M,Денис Водолазский,SBD,,
No,Wraps,1,Evgeny Petrov,Pro Teen 16-17,1996,Russia,54.3,110,115,-117.5,115,60,65,70,70,120,130,140,140,325,56,M,Евгений Петров,SBD,,
No,Wraps,1,Ziya Amirli,Pro Juniors 20-23,1992,Russia,60,-85,85,95,95,75,82.5,87.5,87.5,130,142.5,152.5,152.5,335,60,M,Зия Амирли,SBD,,
No,Wraps,1,Mikhail Suslov,Pro Teen 18-19,1994,Russia,64.6,180,-190,190,190,115,120,-125,120,200,220,-230,220,530,67.5,M,Михаил Суслов,SBD,,
No,Wraps,1,Denis Belyaev,Pro Teen 18-19,1993,Russia,72.15,150,-160,160,160,110,-115,115,115,185,195,-200,195,470,75,M,Денис Беляев,SBD,,
No,Wraps,1,Konstantin Morev,Pro Open,1993,Russia,72.6,120,135,-145,135,100,-110,110,110,155,170,177.5,177.5,422.5,75,M,Константин Морев,SBD,,
No,Wraps,1,Stanislav Sergeev,Pro Teen 16-17,1995,Russia,78.35,-175,180,192.5,192.5,122.5,-127.5,-127.5,122.5,200,215,230,230,545,82.5,M,Станислав Сергеев,SBD,,
No,Wraps,1,Pavel Gridchin,Pro Juniors 20-23,1993,Russia,80.6,190,205,-220,205,130,137.5,142.5,142.5,190,205,212.5,212.5,560,82.5,M,Павел Гридчин,SBD,,
No,Wraps,2,Aleksandr Zyryanov,Pro Juniors 20-23,1990,Russia,82.3,195,-205,-205,195,122.5,127.5,135,135,210,-220,-220,210,540,82.5,M,Александр Зырянов,SBD,,
No,Wraps,3,Dmitriy Kondratyev,Pro Juniors 20-23,1990,Russia,81.7,170,-175,-175,170,122.5,-130,130,130,180,190,-195,190,490,82.5,M,Дмитрий Кондратьев,SBD,,
No,Wraps,1,Denis Kochmarev,Pro Open,1981,Russia,81.8,200,212.5,220,220,145,155,-160,155,230,242.5,250,250,625,82.5,M,Денис Кочмарев,SBD,,
No,Wraps,2,Aleksandr Kuchin,Pro Open,1987,Russia,82.5,190,200,212.5,212.5,140,145,-147.5,145,220,235,,235,592.5,82.5,M,Александр Кучин,SBD,,
No,Wraps,3,Pavel Pridchin,Pro Open,1993,Russia,80.6,190,205,-220,205,130,137.5,142.5,142.5,190,205,212.5,212.5,560,82.5,M,Павел Придчин,SBD,,
No,Wraps,1,Yuri Shumskikh,Pro Masters 50-54,1958,Russia,79.65,150,160,170,170,90,95,97.5,97.5,150,163.5,167.5,167.5,435,82.5,M,Юрий Шумских,SBD,,
No,Wraps,1,Pavel Skorobogatov,Pro Teen 16-17,1996,Russia,87.5,165,175,-182.5,175,92.5,102.5,107.5,107.5,195,205,-207.5,205,487.5,90,M,Павел Скоробогатов,SBD,,
No,Wraps,1,Dmitriy Podchasov,Pro Teen 18-19,1994,Russia,89.55,165,175,-185,175,100,107.5,112.5,112.5,200,210,215,215,502.5,90,M,Дмитрий Подчасов,SBD,,
No,Wraps,1,Vladimir Nikolaev,Pro Juniors 20-23,1990,Russia,89.9,230,240,250,250,155,165,175,175,240,255,265,265,690,90,M,Владимир Николаев,SBD,,
No,Wraps,2,Vyacheslav Alekseev,Pro Juniors 20-23,1990,Russia,87.35,210,230,242.5,242.5,120,-130,137.5,137.5,245,280,-287.5,280,660,90,M,Вячеслав Алексеев,SBD,,
No,Wraps,3,Vladimir Kozlov,Pro Juniors 20-23,1991,Russia,87.35,175,185,195,195,115,-125,130,130,195,210,220,220,545,90,M,Владимир Козлов,SBD,,
No,Wraps,1,Yuriy Karpov,Pro Open,1986,Russia,89.45,240,250,-255,250,180,190,-195,190,270,300,315,315,755,90,M,Юрий Карпов,SBD,,
No,Wraps,2,Vladimir Nikolaev,Pro Open,1990,Russia,89.9,230,240,250,250,155,165,175,175,240,255,265,265,690,90,M,Владимир Николаев,SBD,,
No,Wraps,3,Oleg Valiev,Pro Open,1985,Russia,89.9,210,220,-230,220,170,180,185,185,240,255,262.5,262.5,667.5,90,M,Олег Валиев,SBD,,
No,Wraps,4,Vyacheslav Alekseev,Pro Open,1990,Russia,87.35,210,230,242.5,242.5,120,-130,137.5,137.5,245,280,-287.5,280,660,90,M,Вячеслав Алексеев,SBD,,
No,Wraps,5,Aleksey Zavorin,Pro Open,1975,Russia,86.8,-180,190,-200,190,150,-160,-165,150,220,230,240,240,580,90,M,Алексей Заворин,SBD,,
No,Wraps,DQ,Aleksandr Savin,Pro Open,1986,Russia,90,200,210,-215,210,-180,180,-185,180,-240,-240,-240,,,90,M,Александр Савин,SBD,,
No,Wraps,DQ,Roman Grischenko,Pro Open,1985,Russia,90,-200,,,,,,,,,,,,,90,M,Роман Грищенко,SBD,,
No,Wraps,1,Valeriy Laryushkin,Pro Masters 65-69,1945,Russia,87.3,120,130,,130,85,90,92.5,92.5,165,-172.5,,165,387.5,90,M,Валерий Ларюшкин,SBD,,
No,Wraps,1,Yaroslav Ivanov,Pro Teen 16-17,1995,Russia,94.4,165,180,-190,180,90,95,100,100,220,240,250,250,530,100,M,Ярослав Иванов,SBD,,
No,Wraps,1,Stanislav Telyatin,Pro Juniors 20-23,1989,Russia,99,-200,215,230,230,130,145,152.5,152.5,210,230,257.5,257.5,640,100,M,Станислав Телятин,SBD,,
No,Wraps,1,Ivan Vasyunin,Pro Open,1983,Russia,97.8,260,270,280,280,220,-230,230,230,270,285,-300,285,795,100,M,Иван Васюнин,SBD,,
No,Wraps,2,Maksim Ostertak,Pro Open,1982,Russia,99.9,200,210,215,215,170,-177.5,177.5,177.5,287.5,300,310,310,702.5,100,M,Максим Остертак,SBD,,
No,Wraps,3,Stanislav Telyatin,Pro Open,1989,Russia,99,-200,215,230,230,130,145,152.5,152.5,210,230,257.5,257.5,640,100,M,Станислав Телятин,SBD,,
No,Wraps,4,Vadim Ivanov,Pro Open,1988,Russia,99.7,210,-215,-225,210,190,-200,200,200,215,230,-240,230,640,100,M,Вадим Иванов,SBD,,
No,Wraps,5,Igor Lepikhov,Pro Open,1976,Russia,97.85,-200,-210,210,210,150,157.5,162.5,162.5,232.5,240,250,250,622.5,100,M,Игорь Лепихов,SBD,,
No,Wraps,6,Roman Loshkarev,Pro Open,1979,Russia,95.25,200,-210,-210,200,150,155,-162.5,155,230,240,247.5,247.5,602.5,100,M,Роман Лошкарев,SBD,,
No,Wraps,7,Pavel Afanasyev,Pro Open,1986,Russia,94.4,175,187.5,-200,187.5,115,125,-135,125,210,230,-242.5,230,542.5,100,M,Павел Афанасьев,SBD,,
No,Wraps,8,Yaroslav Ivanov,Pro Open,1995,Russia,94.4,165,180,-190,180,90,95,100,100,220,240,250,250,530,100,M,Ярослав Иванов,SBD,,
No,Wraps,1,Oleg Lagunov,Pro Masters 50-54,1960,Russia,99.15,210,-225,225,225,125,135,145,145,240,255,265,265,635,100,M,Олег Лагунов,SBD,,
No,Wraps,2,Aleksandr Pozyabkin,Pro Masters 50-54,1958,Russia,92.6,150,160,-170,160,120,-125,,120,-160,170,190,190,470,100,M,Александр Позябкин,SBD,,
No,Wraps,1,Andrey Dotsenko,Pro Juniors 20-23,1991,Russia,102.7,-195,195,210,210,137.5,145,-152.5,145,220,240,-250,240,595,110,M,Андрей Доценко,SBD,,
No,Wraps,1,Aleksandr Storozhenko,Pro Open,1982,Russia,107.8,230,240,250,250,165,172.5,-180,172.5,270,280,-290,280,702.5,110,M,Александр Стороженко,SBD,,
No,Wraps,2,Dmitriy Shishkin,Pro Open,1982,Russia,101.55,-170,,170,170,100,110,120,120,180,200,-210,200,490,110,M,Дмитрий Шишкин,SBD,,
No,Wraps,1,Evgeniy Gorshkov,Pro Masters 40-44,1969,Russia,107,160,172.5,-180,172.5,105,110,115,115,180,190,200,200,487.5,110,M,Евгений Горшков,SBD,,
No,Wraps,1,Georgiy Usov,Pro Teen 18-19,1993,Russia,121.2,240,260,270,270,135,147.5,155,155,260,295,-300,295,720,125,M,Георгий Усов,SBD,,
No,Wraps,1,Sergey Semakin,Pro Open,1978,Russia,116.15,280,300,-310,300,190,200,-207.5,200,300,325,340,340,840,125,M,Сергей Семакин,SBD,,
No,Wraps,2,Sergey Farafontyev,Pro Open,1984,Russia,120.55,260,275,285,285,190,-197.5,-197.5,190,290,305,-315,305,780,125,M,Сергей Фарафонтьев,SBD,,
No,Wraps,3,Georgiy Usov,Pro Open,1993,Russia,121.2,240,260,270,270,135,147.5,155,155,260,295,-300,295,720,125,M,Георгий Усов,SBD,,
No,Wraps,4,Viktor Litvinov,Pro Open,1982,Russia,120.25,230,240,250,250,150,165,170,170,230,-240,240,240,660,125,M,Виктор Литвинов,SBD,,
No,Wraps,5,Aleksandr Abramov,Pro Open,1987,Russia,114.2,190,-200,200,200,-155,160,165,165,250,-265,-265,250,615,125,M,Александр Абрамов,SBD,,
No,Wraps,1,Valeriy Gorbunov,Pro Masters 45-49,1965,Russia,110.25,240,262.5,270,270,150,160,-162.5,160,240,262.5,-270,262.5,692.5,125,M,Валерий Горбунов,SBD,,
No,Wraps,2,Borislav Dzakhsorov,Pro Masters 40-44,1972,Russia,122.9,220,230,-240,230,170,180,-190,180,220,240,260,260,670,125,M,Борислав Дзахсоров,SBD,,
No,Wraps,1,Anton Dementev,Pro Open,1984,Russia,128.25,270,280,290,290,215,225,230,230,327.5,340,350,350,870,140,M,Антон Дементьев,SBD,,
No,Wraps,2,Andrey Galin,Pro Open,1965,Russia,137.7,280,300,325,325,190,200,210,210,240,255,280,280,815,140,M,Андрей Галин,SBD,,
No,Wraps,3,Stanislav Savinov,Pro Open,1986,Russia,130.8,200,215,-220,215,150,165,172.5,172.5,240,267.5,-275,267.5,655,140,M,Станислав Савинов,SBD,,
No,Wraps,1,Andrey Galin,Pro Masters 45-49,1965,Russia,137.7,280,300,325,325,190,200,210,210,240,255,280,280,815,140,M,Андрей Галин,SBD,,
Yes,Wraps,1,Anna Artemenko,Amateur Open,1990,Russia,44,50,60,70,70,35,-40,42.5,42.5,82.5,-95,-100,82.5,195,44,F,Анна Артеменко,SBD,,
Yes,Wraps,1,Viktoriya Avdeeva,Amateur Juniors 20-23,1992,Russia,47.85,60,70,72.5,72.5,30,37.5,42.5,42.5,75,85,95,95,210,48,F,Виктория Авдеева,SBD,,
Yes,Wraps,2,Yuliya Buzulutskova,Amateur Juniors 20-23,1992,Russia,47.35,60,-65,-65,60,30,35,-40,35,60,65,72.5,72.5,167.5,48,F,Юлия Бузулуцкова,SBD,,
Yes,Wraps,1,Tatyana Chechkina,Amateur Open,1986,Russia,47.6,-110,110,-115,110,-60,60,65,65,117.5,122.5,-130.5,122.5,297.5,48,F,Татьяна Чечкина,SBD,,
Yes,Wraps,1,Darya Esaulenko,Amateur Teen 13,2001,Russia,50.25,40,-45,-50,40,25,30,-32.5,30,80,85,-90,85,155,52,F,Дарья Эсауленко,SBD,,
Yes,Wraps,1,Olesya Bartuli,Amateur Teen 14-15,1997,Russia,51.15,80,-90,-90,80,35,37.5,40,40,95,-102.5,-102.5,95,215,52,F,Олеся Бартули,SBD,,
Yes,Wraps,1,Sveta Peraladova,Amateur Teen 18-19,1994,Russia,51.9,75,-85,85,85,40,-45,45,45,-95,95,-100,95,225,52,F,Света Пераладова,SBD,,
Yes,Wraps,1,Tatyana Lazareva,Amateur Juniors 20-23,1992,Russia,51.85,65,75,-80,75,40,45,47.5,47.5,-92.5,92.5,-100,92.5,215,52,F,Татьяна Лазарева,SBD,,
Yes,Wraps,1,Natalya Paramonova,Amateur Open,1972,Russia,51.4,80,90,-100,90,55,60,62.5,62.5,110,120,125,125,277.5,52,F,Наталья Парамонова,SBD,,
Yes,Wraps,2,Svetlana Stelmashenko,Amateur Open,1985,Russia,51.85,70,75,-77.5,75,55,-60,-60,55,110,120,-125,120,250,52,F,Светлана Стельмашенко,SBD,,
Yes,Wraps,3,Tatyana Sukhorukova,Amateur Open,1981,Russia,51,-70,77.5,82.5,82.5,37.5,42.5,45,45,102.5,-115,-115,102.5,230,52,F,Татьяна Сухорукова,SBD,,
Yes,Wraps,1,Polina Matveeva,Amateur Teen 14-15,1997,Russia,55.5,-70,70,-75,70,40,47.5,-52.5,47.5,80,95,-105,95,212.5,56,F,Полина Матвеева,SBD,,
Yes,Wraps,1,Svetlana Bartuli,Amateur Teen 16-17,1995,Russia,55.55,80,90,-95,90,40,47.5,-50,47.5,120,130,137.5,137.5,275,56,F,Светлана Бартули,SBD,,
Yes,Wraps,2,Ekaterina Kuzmicheva,Amateur Teen 16-17,1996,Russia,55.9,65,72.5,77.5,77.5,40,45,-50,45,115,125,135,135,257.5,56,F,Екатерина Кузьмичева,SBD,,
Yes,Wraps,1,Anastasiya Komissarova,Amateur Juniors 20-23,1990,Russia,54.7,80,87.5,-92.5,87.5,40,45,-47.5,45,105,110,115,115,247.5,56,F,Анастасия Комиссарова,SBD,,
Yes,Wraps,1,Marina Nikitina,Amateur Open,1976,Russia,55.2,95,-100,100,100,55,-57.5,-57.5,55,110,-115,-115,110,265,56,F,Марина Никитина,SBD,,
Yes,Wraps,2,Olga Turkina,Amateur Open,1988,Russia,55.2,80,-87.5,90,90,47.5,55,-57.5,55,102.5,112.5,-117.5,112.5,257.5,56,F,Ольга Туркина,SBD,,
Yes,Wraps,3,Anastasiya Komissarova,Amateur Open,1990,Russia,54.7,80,87.5,-92.5,87.5,40,45,-47.5,45,105,110,115,115,247.5,56,F,Анастасия Комиссарова,SBD,,
Yes,Wraps,4,Evgeniya Rapikova,Amateur Open,1988,Russia,55.8,70,80,87.5,87.5,25,30,-32.5,30,-90,90,100,100,217.5,56,F,Евгения Рапикова,SBD,,
Yes,Wraps,5,Nadezhda Berezina,Amateur Open,1986,Russia,55.6,50,60,70,70,30,35,40,40,60,75,-82.5,75,185,56,F,Надежда Березина,SBD,,
Yes,Wraps,DQ,Nadezhda Ponomareva,Amateur Open,1987,Russia,54.55,-70,-70,-70,,,,,,80,90,,90,,56,F,Надежда Пономарева,SBD,,
Yes,Wraps,1,Galina Abramova,Amateur Juniors 20-23,1989,Russia,59.45,100,107.5,112.5,112.5,50,-55,55,55,130,137.5,142.5,142.5,310,60,F,Галина Абрамова,SBD,,
Yes,Wraps,1,Galina Abramova,Amateur Open,1989,Russia,59.45,100,107.5,112.5,112.5,50,-55,55,55,130,137.5,142.5,142.5,310,60,F,Галина Абрамова,SBD,,
Yes,Wraps,1,Natalya Anosova,Amateur Juniors 20-23,1991,Russia,62.1,95,102.5,107.5,107.5,60,65,,65,125,135,-145,135,307.5,67.5,F,Наталья Аносова,SBD,,
Yes,Wraps,1,Natalya Korenkova,Amateur Open,1980,Russia,67.2,-105,115,-125,115,92.5,100,105,105,130,145,155,155,375,67.5,F,Наталья Коренкова,SBD,,
Yes,Wraps,2,Yuliya Dubrovina,Amateur Open,1983,Russia,65.3,100,-110,-110,100,62.5,-67.5,-67.5,62.5,125,140,,140,302.5,67.5,F,Юлия Дубровина,SBD,,
Yes,Wraps,1,Ekaterina Koshkareva,Amateur Juniors 20-23,1991,Russia,69.25,92.5,-97.5,-97.5,92.5,47.5,-52.5,-52.5,47.5,120,130,-135,130,270,75,F,Екатерина Кошкарева,SBD,,
Yes,Wraps,1,Anna Chubarova,Amateur Open,1988,Russia,74.2,140,147.5,-150,147.5,80,-87.5,87.5,87.5,150,160,170,170,405,75,F,Анна Чубарова,SBD,,
Yes,Wraps,2,Ekaterina Koshkareva,Amateur Open,1991,Russia,69.25,92.5,-97.5,-97.5,92.5,47.5,-52.5,-52.5,47.5,120,130,-135,130,270,75,F,Екатерина Кошкарева,SBD,,
Yes,Wraps,1,Natalya Leontyeva,Amateur Open,1989,Russia,75.35,92.5,102.5,-110,102.5,45,52.5,-57.5,52.5,100,110,115,115,270,82.5,F,Наталья Леонтьева,SBD,,
Yes,Wraps,1,Zhanna Esaulenko,Amateur Open,1978,Russia,85.65,-75,75,90,90,60,65,-70,65,110,125,-137.5,125,280,90,F,Жанна Эсауленко,SBD,,
Yes,Wraps,1,Aleksandr Veselkov,Amateur Teen 18-19,1994,Russia,58.85,-120,-120,120,120,-105,-105,105,105,140,150,160,160,385,60,M,Александр Веселков,SBD,,
Yes,Wraps,1,Maksim Kutyavin,Amateur Open,1988,Russia,58.6,-112.5,112.5,115,115,90,-97.5,-97.5,90,140,150,162.5,162.5,367.5,60,M,Максим Кутявин,SBD,,
Yes,Wraps,1,Andrey Chuchalin,Amateur Teen 14-15,1997,Russia,61.9,100,-105,105,105,75,80,-82.5,80,120,130,140,140,325,67.5,M,Андрей Чучалин,SBD,,
Yes,Wraps,2,Nikita Filippov,Amateur Teen 16-17,1996,Russia,62.05,80,-90,90,90,65,70,72.5,72.5,110,120,-130,120,282.5,67.5,M,Никита Филиппов,SBD,,
Yes,Wraps,3,Daniil Scherbatov,Amateur Teen 14-15,1998,Russia,65.85,-70,-70,70,70,35,40,45,45,70,85,100,100,215,67.5,M,Даниил Щербатов,SBD,,
Yes,Wraps,1,Yaroslav Gusev,Amateur Teen 16-17,1995,Russia,66.15,100,110,115,115,80,-85,85,85,145,155,-162.5,155,355,67.5,M,Ярослав Гусев,SBD,,
Yes,Wraps,1,Sergey Ilinykh,Amateur Juniors 20-23,1989,Russia,60.55,165,170,175,175,-115,115,-117.5,115,155,165,-170,165,455,67.5,M,Сергей Ильиных,SBD,,
Yes,Wraps,1,Aleksey Samoylov,Amateur Open,1982,Russia,66.95,150,160,165,165,120,125,130,130,210,220,-225,220,515,67.5,M,Алексей Самойлов,SBD,,
Yes,Wraps,1,Arsentiy Shishkin,Amateur Masters 70-74,1939,Russia,66.35,125,,,125,50,,,50,140,,,140,315,67.5,M,Арсентий Шишкин,SBD,,
Yes,Wraps,1,Nikita Ilyukhin,Amateur Teen 16-17,1996,Russia,74.75,165,-170,170,170,-120,125,127.5,127.5,192.5,-200,-200,192.5,490,75,M,Никита Ильюхин,SBD,,
Yes,Wraps,2,Aleksey Nikitenko,Amateur Teen 16-17,1996,Russia,73.4,140,150,160,160,90,100,-102.5,100,170,180,-185,180,440,75,M,Алексей Никитенко,SBD,,
Yes,Wraps,3,Roman Pyshkov,Amateur Teen 16-17,1996,Russia,73.75,-125,125,135,135,85,90,-100,90,180,-200,-205,180,405,75,M,Роман Пышков,SBD,,
Yes,Wraps,4,Dmitriy Kashirtsev,Amateur Teen 16-17,1996,Russia,73.9,100,110,-115,110,85,-90,-90,85,-140,140,-150,140,335,75,M,Дмитрий Каширцев,SBD,,
Yes,Wraps,1,Timofey Korotkikh,Amateur Juniors 20-23,1990,Russia,70.6,120,130,-137.5,130,90,100,-105,100,140,150,160,160,390,75,M,Тимофей Коротких,SBD,,
Yes,Wraps,2,Denis Dikov,Amateur Juniors 20-23,1990,Russia,71.5,110,120,127.5,127.5,90,-100,-100,90,150,162.5,-175,162.5,380,75,M,Денис Диков,SBD,,
Yes,Wraps,3,Ilya Lobzyankin,Amateur Juniors 20-23,1989,Russia,72.1,90,-95,97.5,97.5,90,-95,-97.5,90,130,140,-147.5,140,327.5,75,M,Илья Лобзянкин,SBD,,
Yes,Wraps,1,Aleksey Polubatonov,Amateur Open,1987,Russia,74.95,150,160,-170,160,110,115,120,120,180,-195,-195,180,460,75,M,Алексей Полубатонов,SBD,,
Yes,Wraps,2,Sergey Karas,Amateur Open,1973,Russia,74.25,140,147.5,-152.5,147.5,90,-95,-95,90,-160,-160,160,160,397.5,75,M,Сергій Карась,SBD,,
Yes,Wraps,1,Nikolay Zakharov,Amateur Masters 60-64,1951,Russia,67.8,110,120,125,125,55,62.5,-65,62.5,150,-160,,150,337.5,75,M,Николай Захаров,SBD,,
Yes,Wraps,1,Aleksandr Bulatov,Amateur Teen 18-19,1994,Russia,80.2,180,190,200,200,115,125,-130,125,-200,200,-205,200,525,82.5,M,Александр Булатов,SBD,,
Yes,Wraps,1,Vyacheslav Piskalov,Amateur Open,1958,Russia,80.9,225,240,250,250,85,90,95,95,215,230,-237.5,230,575,82.5,M,Вячеслав Пискалов,SBD,,
Yes,Wraps,2,Aleksey Vinyukov,Amateur Open,1973,Russia,79.1,175,-185,185,185,125,130,-135,130,-180,180,-190,180,495,82.5,M,Алексей Винюков,SBD,,
Yes,Wraps,1,Vyacheslav Piskalov,Amateur Masters 50-54,1958,Russia,80.9,225,240,250,250,85,90,95,95,215,230,-237.5,230,575,82.5,M,Вячеслав Пискалов,SBD,,
Yes,Wraps,1,Grigoriy Romanov,Amateur Teen 14-15,1997,Russia,84.95,117.5,125,-130,125,77.5,-85,-85,77.5,145,-155,-155,145,347.5,90,M,Григорий Романов,SBD,,
Yes,Wraps,1,Roman Savchenko,Amateur Teen 16-17,1995,Russia,88.95,180,190,-200,190,135,140,-142.5,140,210,-220,-225,210,540,90,M,Роман Савченко,SBD,,
Yes,Wraps,1,Timofey Ermolaev,Amateur Juniors 20-23,1991,Russia,85.1,170,-182.5,-182.5,170,125,135,142.5,142.5,215,227.5,-235,227.5,540,90,M,Тимофей Ермолаев,SBD,,
Yes,Wraps,1,Roman Grischenko,Amateur Open,1985,Russia,90,200,210,-220,210,150,160,-165,160,250,270,280,280,650,90,M,Роман Грищенко,SBD,,
Yes,Wraps,2,Gennadiy Pokshevatov,Amateur Open,1959,Russia,89,200,220,-230,220,115,125,-135,125,190,215,-225,215,560,90,M,Геннадий Покшеватов,SBD,,
Yes,Wraps,3,Evgeniy Svoboda,Amateur Open,1972,Russia,89.25,160,175,185,185,140,150,,150,170,205,225,225,560,90,M,Евгений Свобода,SBD,,
Yes,Wraps,4,Andrey Vereschagin,Amateur Open,1985,Russia,88.15,160,170,177.5,177.5,120,127.5,-130,127.5,200,215,-235,215,520,90,M,Андрей Верещагин,SBD,,
Yes,Wraps,5,Grigoriy Kostenko,Amateur Open,1986,Russia,86.35,160,175,182.5,182.5,110,-120,120,120,190,205,-217.5,205,507.5,90,M,Григорий Костенко,SBD,,
Yes,Wraps,6,Igor Koscheev,Amateur Open,1979,Russia,87.8,140,150,155,155,110,115,120,120,170,180,190,190,465,90,M,Игорь Кощеев,SBD,,
Yes,Wraps,7,Sergey Vostrikov,Amateur Open,1988,Russia,85.65,125,135,-150,135,115,125,135,135,185,-200,-200,185,455,90,M,Сергей Востриков,SBD,,
Yes,Wraps,1,Evgeniy Svoboda,Amateur Masters 40-44,1972,Russia,89.25,160,175,185,185,140,150,,150,170,205,225,225,560,90,M,Евгений Свобода,SBD,,
Yes,Wraps,1,Gennadiy Pokshevatov,Amateur Masters 50-54,1959,Russia,89,200,220,-230,220,115,125,-135,125,190,215,-225,215,560,90,M,Геннадий Покшеватов,SBD,,
Yes,Wraps,1,Evgeniy Levchenko,Amateur Teen 14-15,1997,Russia,97.8,-120,120,130,130,85,87.5,90,90,130,140,155,155,375,100,M,Евгений Левченко,SBD,,
Yes,Wraps,1,Daniil Pereslavtsev,Amateur Teen 16-17,1996,Russia,95.65,180,195,202.5,202.5,140,-145,-145,140,220,230,-240,230,572.5,100,M,Даниил Переславцев,SBD,,
Yes,Wraps,2,Maksim Kondakov,Amateur Teen 18-19,1994,Russia,99.7,195,207.5,-215,207.5,140,-147.5,-150,140,215,225,-237.5,225,572.5,100,M,Максим Кондаков,SBD,,
Yes,Wraps,3,Egor Ryzhkov,Amateur Teen 18-19,1994,Russia,91.4,160,-170,-170,160,-135,135,-140,135,180,200,225,225,520,100,M,Егор Рыжков,SBD,,
Yes,Wraps,4,Vladimir Maslyuk,Amateur Teen 18-19,1994,Russia,94.25,180,190,-200,190,-130,130,-140,130,180,200,-210,200,520,100,M,Владимир Маслюк,SBD,,
Yes,Wraps,1,Vyacheslav Bochkarev,Amateur Juniors 20-23,1990,Russia,97.45,-210,210,222.5,222.5,-130,-130,130,130,210,230,250,250,602.5,100,M,Вячеслав Бочкарев,SBD,,
Yes,Wraps,2,Aleksey Bokarev,Amateur Juniors 20-23,1991,Russia,92.75,140,155,-165,155,120,130,-142.5,130,170,190,210,210,495,100,M,Алексей Бокарев,SBD,,
Yes,Wraps,1,Ayur Dorzhiev,Amateur Open,1988,Russia,96,200,-215,215,215,-140,140,145,145,220,230,-240,230,590,100,M,Аюр Доржиев,SBD,,
Yes,Wraps,2,Aleksandr Pushkarev,Amateur Open,1987,Russia,97.4,170,-200,215,215,130,140,-147.5,140,180,220,-230,220,575,100,M,Александр Пушкарев,SBD,,
Yes,Wraps,3,Aleksey Bokarev,Amateur Open,1991,Russia,92.75,140,155,-165,155,120,130,-142.5,130,170,190,210,210,495,100,M,Алексей Бокарев,SBD,,
Yes,Wraps,4,Maksim Nikolaev,Amateur Open,1985,Russia,97.05,-122.5,127.5,132.5,132.5,100,105,110,110,-150,157.5,160,160,402.5,100,M,Максим Николаев,SBD,,
Yes,Wraps,1,Oleg Smolin,Amateur Masters 45-49,1963,Russia,97.4,175,190,-195,190,140,147.5,150,150,180,200,217.5,217.5,557.5,100,M,Олег Смолин,SBD,,
Yes,Wraps,1,Yuriy Burkunov,Amateur Juniors 20-23,1989,Russia,102.3,-180,-190,200,200,150,160,-165,160,210,230,240,240,600,110,M,Юрий Буркунов,SBD,,
Yes,Wraps,1,Andrey Bondarenko,Amateur Open,1981,Russia,107.45,210,225,232.5,232.5,185,195,-200,195,245,265,277.5,277.5,705,110,M,Андрей Бондаренко,SBD,,
Yes,Wraps,2,Yuriy Burkunov,Amateur Open,1989,Russia,102.3,-180,-190,200,200,150,160,-165,160,210,230,240,240,600,110,M,Юрий Буркунов,SBD,,
Yes,Wraps,1,Mikhail Batukov,Amateur Masters 40-44,1972,Russia,103.6,-200,200,215,215,130,-137.5,137.5,137.5,210,-230,-230,210,562.5,110,M,Михаил Батуков,SBD,,
Yes,Wraps,1,Aleksandr Filimonov,Amateur Open,1987,Russia,121.3,200,210,240,240,170,180,190,190,250,270,285,285,715,125,M,Александр Филимонов,SBD,,
Yes,Wraps,1,Leontiy Yatsenko,Amateur Juniors 20-23,1990,Russia,125.9,180,200,210,210,140,150,-155,150,180,200,215,215,575,140,M,Леонтий Яценко,SBD,,
No,Multi-ply,1,Sergey Popov #15,Pro Teen 16-17,1995,Russia,66.3,185,195,-205,195,100,105,-110,105,175,185,200,200,500,67.5,M,Сергей Попов,SBD,,
No,Multi-ply,1,Konstantin Polyakov,Pro Open,1976,Russia,75,220,235,-250,235,140,150,155,155,230,240,,240,630,75,M,Константин Поляков,SBD,,
No,Multi-ply,DQ,Yevgeny Gansh,Pro Open,1992,Russia,73.2,280,-290,,280,200,-210,-210,200,-250,-250,-250,,,75,M,Евгений Ганш,SBD,,
No,Multi-ply,DQ,Sergey Fedoseev,Pro Open,1982,Russia,74.95,-190,-195,-195,,,,,,,,,,,75,M,Сергей Федосеев,SBD,,
No,Multi-ply,DQ,Grigoriy Borodin,Pro Teen 18-19,1994,Russia,82.5,,-270,-270,,,,,,,,,,,82.5,M,Григорий Бородин,SBD,,
No,Multi-ply,1,Maxim Schwarts,Pro Juniors 20-23,1989,Russia,79.7,290,305,-315,305,165,-175,175,175,260,275,285,285,765,82.5,M,Максим Шварц,SBD,,
No,Multi-ply,1,Maxim Schwarts,Pro Open,1989,Russia,79.7,290,305,-315,305,165,-175,175,175,260,275,285,285,765,82.5,M,Максим Шварц,SBD,,
No,Multi-ply,2,Viktor Shmatkov,Pro Open,1982,Russia,76.25,220,230,-235,230,-145,145,-155,145,190,210,-220,210,585,82.5,M,Виктор Шматков,SBD,,
No,Multi-ply,DQ,Sergey Gostischev,Pro Open,1982,Russia,80.4,220,235,242.5,242.5,140,-150,-150,140,-200,-200,-200,,,82.5,M,Сергей Гостищев,SBD,,
No,Multi-ply,1,Vladislav Filipovich,Pro Juniors 20-23,1991,Russia,88.75,345,360,,360,215,230,-240,230,-290,290,305,305,895,90,M,Владислав Филипович,SBD,,
No,Multi-ply,1,Vladislav Filipovich,Pro Open,1991,Russia,88.75,345,360,,360,215,230,-240,230,-290,290,305,305,895,90,M,Владислав Филипович,SBD,,
No,Multi-ply,2,Aleksandr Druzhinin,Pro Open,1989,Russia,87.9,310,-330,-330,310,210,225,-235,225,280,-300,,280,815,90,M,Александр Дружинин,SBD,,
No,Multi-ply,3,Anton Pecheneko,Pro Open,1991,Russia,89.1,265,285,290,290,160,-175,175,175,275,285,-300,285,750,90,M,Антон Печенеко,SBD,,
No,Multi-ply,DQ,Ivan Vasyunin,Pro Open,1983,Russia,98.65,350,365,380,380,-290,-290,-290,,,,,,,100,M,Иван Васюнин,SBD,,
No,Multi-ply,1,Andrey Belogubkin,Pro Teen 16-17,1996,Russia,103.73,190,210,-230,210,150,-165,,150,220,230,250,250,610,110,M,Андрей Белогубкин,SBD,,
No,Multi-ply,1,Stanislav Shishkin,Pro Juniors 20-23,1991,Russia,102.5,240,260,-270,260,-160,160,170,170,-240,240,250,250,680,110,M,Станислав Шишкин,SBD,,
No,Multi-ply,1,Aleksandr Bozhko,Pro Open,1979,Russia,105.2,250,265,280,280,140,150,155,155,250,265,,265,700,110,M,Александр Божко,SBD,,
No,Multi-ply,1,Oleg Vlasov,Pro Open,1973,Russia,124.85,330,350,370,370,250,260,-270,260,320,330,-350,330,960,125,M,Олег Власов,SBD,,
No,Multi-ply,2,Aleksandr Musokhranov,Pro Open,1980,Russia,110.6,270,290,-315,290,180,195,205,205,260,280,-300,280,775,125,M,Александр Мусохранов,SBD,,
No,Multi-ply,1,Pavel Gensitskiy,Pro Juniors 20-23,1991,Russia,132.45,260,-275,290,290,150,-165,175,175,255,275,290,290,755,140,M,Павел Генсицкий,SBD,,
Yes,Multi-ply,1,Natalya Stupicheva,Amateur Juniors 20-23,1992,Russia,51.25,67.5,-75,75,75,42.5,45,-47.5,45,105,115,-120,115,235,52,F,Наталья Ступичева,SBD,,
Yes,Multi-ply,1,Olesya Braslavets,Amateur Open,1981,Russia,56,80,92.5,100,100,45,-50,-50,45,80,90,100,100,245,56,F,Олеся Браславец,SBD,,
Yes,Multi-ply,1,Sergey Velts,Amateur Teen 16-17,1996,Russia,59.75,185,200,-210,200,95,105,110,110,180,190,,190,500,60,M,Сергей Вельц,SBD,,
Yes,Multi-ply,1,Arsentiy Shishkin,Amateur Masters 70-74,1939,Russia,67.1,170,,,170,70,81,,81,170,182.5,,182.5,433.5,67.5,M,Арсентий Шишкин,SBD,,
Yes,Multi-ply,DQ,Egor Fadeev,Amateur Teen 18-19,1994,Russia,70.1,-215,220,-235,220,-150,-150,-150,,,,,,,75,M,Егор Фадеев,SBD,,
Yes,Multi-ply,1,Sergey Stakheev,Amateur Open,1984,Russia,74.9,155,165,-172.5,165,135,140,142.5,142.5,160,170,175,175,482.5,75,M,Сергей Стахеев,SBD,,
Yes,Multi-ply,1,Vladislav Minin,Amateur Teen 16-17,1995,Russia,81.35,230,-245,-245,230,130,140,-150,140,200,215,230,230,600,82.5,M,Владислав Минин,SBD,,
Yes,Multi-ply,1,Aleksey Rodik-Knyazev,Amateur Open,1981,Russia,80.15,180,190,205,205,165,172.5,180,180,190,215,227.5,227.5,612.5,82.5,M,Алексей Родик-Князев,SBD,,
Yes,Multi-ply,1,Oleg Stepanov #3,Amateur Masters 45-49,1964,Russia,82,190,-200,-207.5,190,142.5,147.5,,147.5,160,170,180,180,517.5,82.5,M,Олег Степанов,SBD,,
Yes,Multi-ply,DQ,Vyacheslav Piskalov,Amateur Masters 50-54,1958,Russia,81.35,270,290,300,300,-110,-110,-110,,,,,,,82.5,M,Вячеслав Пискалов,SBD,,
Yes,Multi-ply,1,Evgeniy Svoboda,Amateur Open,1972,Russia,88.65,225,250,-270,250,170,-177.5,-177.5,170,205,235,,235,655,90,M,Евгений Свобода,SBD,,
Yes,Multi-ply,DQ,Artem Bykhovets,Amateur Open,1983,Russia,89.25,280,-290,290,290,-242.5,-242.5,-242.5,,220,250,270.5,270.5,,90,M,Артем Быховец,SBD,,
Yes,Multi-ply,1,Evgeniy Svoboda,Amateur Masters 40-44,1972,Russia,88.65,225,250,-270,250,170,-177.5,-177.5,170,205,235,,235,655,90,M,Евгений Свобода,SBD,,
Yes,Multi-ply,1,Daniil Fomenko,Amateur Juniors 20-23,1992,Russia,99.75,300,320,330.5,330.5,200,-210,-210,200,270,-290,290,290,820.5,100,M,Даниил Фоменко,SBD,,
Yes,Multi-ply,1,Daniil Fomenko,Amateur Open,1992,Russia,99.75,300,320,330.5,330.5,200,-210,-210,200,270,-290,290,290,820.5,100,M,Даниил Фоменко,SBD,,
Yes,Multi-ply,2,Konstantin Zhilkin,Amateur Open,1979,Russia,92.5,160,175,-190,175,100,-110,120,120,150,165,175,175,470,100,M,Константин Жилкин,SBD,,
Yes,Raw,1,Roman Ridnyy,Amateur Open,1992,Russia,53.6,,,,,100,110,-112.5,110,,,,,110,56,M,Роман Ридный,B,,
Yes,Raw,1,Yuriy Vikhorev,Amateur Masters 60-64,1950,Russia,67.05,,,,,90,-92.5,92.5,92.5,,,,,92.5,67.5,M,Юрий Вихорев,B,,
Yes,Raw,1,Anton Ponomarev,Amateur Open,1992,Russia,99.15,,,,,125,135,140,140,,,,,140,100,M,Антон Пономарев,B,,
Yes,Raw,DQ,Anastasiya Kovanovskaya,Amateur Juniors 20-23,1989,Russia,46.1,,,,,-40,-42.5,-42.5,,,,,,,48,F,Анастасия Ковановская,B,,
Yes,Raw,1,Evgeniya Korolkova,Amateur Open,1984,Russia,46.35,,,,,-47.5,47.5,50,50,,,,,50,48,F,Евгения Королькова,B,,
Yes,Raw,2,Lyubov Shestakova,Amateur Open,1988,Russia,47.55,,,,,42.5,-47.5,-50,42.5,,,,,42.5,48,F,Любовь Шестакова,B,,
Yes,Raw,1,Natalya Konovalova,Amateur Open,1988,Russia,52,,,,,100,105,107.5,107.5,,,,,107.5,52,F,Наталья Коновалова,B,-110,
Yes,Raw,1,Nonna Starostina,Amateur Masters 40-44,1969,Russia,50.45,,,,,35,-40,-40,35,,,,,35,52,F,Нонна Старостина,B,,
Yes,Raw,1,Alina Ischuk,Amateur Teen 14-15,1998,Russia,54.9,,,,,35,37.5,-40,37.5,,,,,37.5,56,F,Алина Ищук,B,,
Yes,Raw,1,Tatyana Gulevich,Amateur Open,1989,Russia,55.8,,,,,62.5,67.5,-72.5,67.5,,,,,67.5,56,F,Татьяна Гулевич,B,,
Yes,Raw,2,Anna Fedorova,Amateur Open,1993,Russia,55.9,,,,,62.5,-67.5,-67.5,62.5,,,,,62.5,56,F,Анна Федорова,B,,
Yes,Raw,1,Alla Shabunina,Amateur Juniors 20-23,1989,Russia,56.5,,,,,-57.5,62.5,-67.5,62.5,,,,,62.5,60,F,Алла Шабунина,B,,
Yes,Raw,2,Anastasiya Borodina,Amateur Juniors 20-23,1990,Russia,60,,,,,40,45,50,50,,,,,50,60,F,Анастасия Бородина,B,,
Yes,Raw,1,Ekaterina Ivanova,Amateur Open,1982,Russia,59.25,,,,,80,-85,-85,80,,,,,80,60,F,Екатерина Иванова,B,,
Yes,Raw,2,Kristina Baranova,Amateur Open,1988,Russia,58.2,,,,,-70,72.5,-80,72.5,,,,,72.5,60,F,Кристина Баранова,B,,
Yes,Raw,3,Sofya Beresneva,Amateur Open,1982,Russia,59.25,,,,,45,50,-52.5,50,,,,,50,60,F,Софья Береснева,B,,
Yes,Raw,4,Svetlana Ilyasova,Amateur Open,1975,Russia,59.45,,,,,50,-60,-62.5,50,,,,,50,60,F,Светлана Ильясова,B,,
Yes,Raw,DQ,Ekaterina Schibrya,Amateur Open,1986,Russia,60,,,,,-70,,,,,,,,,60,F,Екатерина Щибря,B,,
Yes,Raw,1,Natalya Korenkova,Amateur Open,1980,Russia,68.1,,,,,95,102.5,-107.5,102.5,,,,,102.5,75,F,Наталья Коренкова,B,,
Yes,Raw,1,Elena Skobelkina,Amateur Open,1973,Russia,103.8,,,,,72.5,82.5,,82.5,,,,,82.5,90+,F,Елена Скобелкина,B,,
Yes,Raw,1,Elena Skobelkina,Amateur Masters 40-44,1973,Russia,103.8,,,,,72.5,82.5,,82.5,,,,,82.5,90+,F,Елена Скобелкина,B,,
Yes,Raw,1,Sergey Synkov,Amateur Teen 13,2001,Russia,36.3,,,,,45,-47.5,47.5,47.5,,,,,47.5,44,M,Сергей Сынков,B,,
Yes,Raw,1,Andrey Shtork,Amateur Teen 14-15,1998,Russia,55.05,,,,,65,75,80,80,,,,,80,56,M,Андрей Шторк,B,,
Yes,Raw,2,Vitaliy Naydenkov,Amateur Teen 14-15,1998,Russia,52.65,,,,,-67.5,67.5,70,70,,,,,70,56,M,Виталий Найденков,B,,
Yes,Raw,1,Anatoliy Kozlov,Amateur Teen 18-19,1994,Russia,60,,,,,-100,100,102.5,102.5,,,,,102.5,60,M,Анатолий Козлов,B,,
Yes,Raw,2,Aleksandr Lomatchenko,Amateur Teen 16-17,1995,Russia,59.85,,,,,92.5,97.5,-100,97.5,,,,,97.5,60,M,Александр Ломатченко,B,,
Yes,Raw,1,Daniil Semenov,Amateur Teen 16-17,1996,Russia,67.5,,,,,110,120,-122.5,120,,,,,120,67.5,M,Даниил Семенов,B,,
Yes,Raw,2,Evgeniy Shurakov,Amateur Teen 14-15,1997,Russia,62.65,,,,,85,90,-95,90,,,,,90,67.5,M,Евгений Шураков,B,,
Yes,Raw,3,Sergey Mitrofanov,Amateur Teen 14-15,1997,Russia,64.3,,,,,-70,70,80,80,,,,,80,67.5,M,Сергей Митрофанов,B,,
Yes,Raw,1,Igor Fomenko,Amateur Teen 18-19,1994,Russia,66,,,,,-100,100,105,105,,,,,105,67.5,M,Игорь Фоменко,B,,
Yes,Raw,2,Andrey Lityaev,Amateur Teen 16-17,1995,Russia,67.45,,,,,90,-100,100,100,,,,,100,67.5,M,Андрей Литяев,B,,
Yes,Raw,3,Egor Seryukov,Amateur Teen 16-17,1996,Russia,62.85,,,,,70,80,82.5,82.5,,,,,82.5,67.5,M,Егор Серюков,B,,
Yes,Raw,4,Aleksandr Anufriev,Amateur Teen 16-17,1995,Russia,66.4,,,,,70,77.5,82.5,82.5,,,,,82.5,67.5,M,Александр Ануфриев,B,,
Yes,Raw,1,Konstantin Protskiy,Amateur Juniors 20-23,1992,Russia,67.5,,,,,120,130,-135,130,,,,,130,67.5,M,Константин Процкий,B,,
Yes,Raw,2,Sergey Zagarskiy,Amateur Juniors 20-23,1989,Russia,66.55,,,,,110,120,-130,120,,,,,120,67.5,M,Сергей Загарский,B,,
Yes,Raw,1,Dmitriy Kaygorodov,Amateur Open,1983,Russia,65.65,,,,,145,-150,-150,145,,,,,145,67.5,M,Дмитрий Кайгородов,B,,
Yes,Raw,2,Sergey Poboykin,Amateur Open,1989,Russia,66.3,,,,,-130,130,-135,130,,,,,130,67.5,M,Сергей Побойкин,B,,
Yes,Raw,3,Aleksey Abramov,Amateur Open,1986,Russia,66.35,,,,,120,-125,-125,120,,,,,120,67.5,M,Алексей Абрамов,B,,
Yes,Raw,1,Vladislav Kuzin,Amateur Teen 16-17,1995,Russia,74.35,,,,,115,-125,-125,115,,,,,115,75,M,Владислав Кузин,B,,
Yes,Raw,2,Aleksandr Moskalev,Amateur Teen 16-17,1995,Russia,72.5,,,,,-110,-110,110,110,,,,,110,75,M,Александр Москалев,B,,
Yes,Raw,1,Norik Atakishiev,Amateur Juniors 20-23,1993,Russia,74.7,,,,,130,140,-145,140,,,,,140,75,M,Норик Атакишиев,B,,
Yes,Raw,1,Evgeniy Zuev,Amateur Open,1985,Russia,73.3,,,,,150,155,160,160,,,,,160,75,M,Евгений Зуев,B,,
Yes,Raw,2,Igor Kalashnikov,Amateur Open,1964,Russia,71.5,,,,,145,-152.5,157.5,157.5,,,,,157.5,75,M,Игорь Калашников,B,,
Yes,Raw,3,Aleksey Yanchenko,Amateur Open,1985,Russia,74.85,,,,,140,145,-147.5,145,,,,,145,75,M,Алексей Янченко,B,,
Yes,Raw,4,Aleksandr Urukhin,Amateur Open,1983,Russia,73.95,,,,,130,-140,-140,130,,,,,130,75,M,Александр Урухин,B,,
Yes,Raw,5,Aleksandr Aleksandrov #8,Amateur Open,1985,Russia,74.9,,,,,-120,120,130,130,,,,,130,75,M,Александр Александров,B,,
Yes,Raw,6,Aleksey Eresko,Amateur Open,1989,Russia,73.1,,,,,110,125,-130,125,,,,,125,75,M,Алексей Ересько,B,,
Yes,Raw,7,Dmitriy Usmanov,Amateur Open,1982,Russia,75,,,,,120,125,-127.5,125,,,,,125,75,M,Дмитрий Усманов,B,,
Yes,Raw,8,Pavel Parfenov,Amateur Open,1988,Russia,73.55,,,,,115,-125,-125,115,,,,,115,75,M,Павел Парфенов,B,,
Yes,Raw,9,Artemey Gulin,Amateur Open,1983,Russia,71,,,,,90,-105,-107.5,90,,,,,90,75,M,Артемей Гулин,B,,
Yes,Raw,1,Andrey Ovcharov,Amateur Masters 40-44,1971,Russia,72.5,,,,,-130,130,-140,130,,,,,130,75,M,Андрей Овчаров,B,,
Yes,Raw,1,Dmitriy Baluev,Amateur Teen 18-19,1994,Russia,78.95,,,,,125,132.5,-137.5,132.5,,,,,132.5,82.5,M,Дмитрий Балуев,B,,
Yes,Raw,2,Vitaliy Ilyukhin,Amateur Teen 18-19,1994,Russia,80.6,,,,,107.5,-112.5,-112.5,107.5,,,,,107.5,82.5,M,Виталий Илюхин,B,,
Yes,Raw,1,Evgeniy Ikryannikov,Amateur Juniors 20-23,1990,Russia,77.5,,,,,120,132.5,-135,132.5,,,,,132.5,82.5,M,Евгений Икрянников,B,,
Yes,Raw,1,Denis Simakhin,Amateur Open,1982,Russia,81.1,,,,,145,155,162.5,162.5,,,,,162.5,82.5,M,Денис Симахин,B,,
Yes,Raw,2,Aleksey Rodik-Knyazev,Amateur Open,1981,Russia,79.3,,,,,150,157.5,160,160,,,,,160,82.5,M,Алексей Родик-Князев,B,,
Yes,Raw,3,Mikhail Shpagin,Amateur Open,1988,Russia,82.1,,,,,160,-165,-165,160,,,,,160,82.5,M,Михаил Шпагин,B,,
Yes,Raw,4,Vitaliy Kapyrin,Amateur Open,1984,Russia,80.8,,,,,140,150,155,155,,,,,155,82.5,M,Виталий Капырин,B,,
Yes,Raw,5,Aleksandr Murga,Amateur Open,1981,Russia,77.85,,,,,125,132.5,137.5,137.5,,,,,137.5,82.5,M,Александр Мурга,B,,
Yes,Raw,6,Vladimir Malyavnin,Amateur Open,1986,Russia,75.3,,,,,125,135,-145,135,,,,,135,82.5,M,Владимир Малявнин,B,,
Yes,Raw,7,Sergey Zhuganenko,Amateur Open,1987,Russia,78.1,,,,,130,-135,135,135,,,,,135,82.5,M,Сергей Жуганенко,B,,
Yes,Raw,8,Georgiy Lukin,Amateur Open,1984,Russia,81,,,,,132.5,-137.5,-137.5,132.5,,,,,132.5,82.5,M,Георгий Лукин,B,,
Yes,Raw,9,Maksim Berezka,Amateur Open,1981,Russia,81.4,,,,,-132.5,132.5,-135,132.5,,,,,132.5,82.5,M,Максим Березка,B,,
Yes,Raw,10,Aleksandr Savchenko,Amateur Open,1978,Russia,81.5,,,,,115,-122.5,-125,115,,,,,115,82.5,M,Александр Савченко,B,,
Yes,Raw,1,Yuriy Dorzhikarov,Amateur Masters 40-44,1971,Russia,82.5,,,,,145,150,-155,150,,,,,150,82.5,M,Юрий Доржикаров,B,,
Yes,Raw,2,Igor Belskiy,Amateur Masters 40-44,1970,Russia,80.5,,,,,140,-145,,140,,,,,140,82.5,M,Игорь Бельский,B,,
Yes,Raw,1,Nikolay Bachurin,Amateur Masters 60-64,1948,Russia,81.55,,,,,-105,105,110,110,,,,,110,82.5,M,Николай Бачурин,B,,
Yes,Raw,1,Aleksey Luzhanskiy,Amateur Teen 16-17,1995,Russia,88.4,,,,,-145,145,-155,145,,,,,145,90,M,Алексей Лужанский,B,,
Yes,Raw,2,Mukhammed Plasov,Amateur Teen 16-17,1995,Russia,83.55,,,,,120,127.5,130,130,,,,,130,90,M,Мухаммед Пласов,B,,
Yes,Raw,1,Aleksandr Volkov,Amateur Juniors 20-23,1993,Russia,87.75,,,,,150,-157.5,157.5,157.5,,,,,157.5,90,M,Александр Волков,B,-165,
Yes,Raw,2,Petr Nesterenko,Amateur Juniors 20-23,1991,Russia,85,,,,,-140,140,145,145,,,,,145,90,M,Петр Нестеренко,B,,
Yes,Raw,3,Yuriy Popa,Amateur Juniors 20-23,1993,Russia,86.5,,,,,137.5,-142.5,145,145,,,,,145,90,M,Юрий Попа,B,,
Yes,Raw,4,Vladimir Sviridenko,Amateur Juniors 20-23,1991,Russia,87.6,,,,,137.5,142.5,-145,142.5,,,,,142.5,90,M,Владимир Свириденко,B,,
Yes,Raw,5,Andrey Sotnikov,Amateur Juniors 20-23,1989,Russia,90,,,,,105,115,-120,115,,,,,115,90,M,Андрей Сотников,B,,
Yes,Raw,1,Leonid Yakovlev,Amateur Open,1985,Russia,88,,,,,170,-180,-180,170,,,,,170,90,M,Леонид Яковлев,B,,
Yes,Raw,2,Konstantin Zaiko,Amateur Open,1989,Russia,85.55,,,,,155,-165,165,165,,,,,165,90,M,Константин Зайко,B,,
Yes,Raw,3,Aleksey Khaydukov,Amateur Open,1981,Russia,86.3,,,,,150,-155,160,160,,,,,160,90,M,Алексей Хайдуков,B,,
Yes,Raw,4,Aleksandr Kashtanov,Amateur Open,1985,Russia,87.6,,,,,145,155,157.5,157.5,,,,,157.5,90,M,Александр Каштанов,B,,
Yes,Raw,5,Aleksandr Volkov,Amateur Open,1993,Russia,87.75,,,,,150,-157.5,157.5,157.5,,,,,157.5,90,M,Александр Волков,B,-165,
Yes,Raw,6,Stanislav Pavlov,Amateur Open,1985,Russia,86.15,,,,,140,155,-160,155,,,,,155,90,M,Станислав Павлов,B,,
Yes,Raw,7,Artem Lukyanov,Amateur Open,1983,Russia,89.5,,,,,-145,155,-162.5,155,,,,,155,90,M,Артем Лукьянов,B,,
Yes,Raw,8,Nutsu Shiman,Amateur Open,1982,Russia,89.6,,,,,140,-155,155,155,,,,,155,90,M,Нуцу Шиман,B,,
Yes,Raw,9,Anatoliy Chumakov,Amateur Open,1988,Russia,85.65,,,,,152.5,-157.5,-160,152.5,,,,,152.5,90,M,Анатолий Чумаков,B,,
Yes,Raw,10,Aleksey Dubrovskiy,Amateur Open,1986,Russia,88.1,,,,,145,-150,-150,145,,,,,145,90,M,Алексей Дубровский,B,,
Yes,Raw,11,Dmitriy Scherbakov,Amateur Open,1984,Russia,88.2,,,,,-145,-145,145,145,,,,,145,90,M,Дмитрий Щербаков,B,,
Yes,Raw,12,Anton Ampleev,Amateur Open,1982,Russia,87.5,,,,,115,125,132.5,132.5,,,,,132.5,90,M,Антон Амплеев,B,,
Yes,Raw,13,Denis Savchenko,Amateur Open,1983,Russia,87.25,,,,,110,-120,-120,110,,,,,110,90,M,Денис Савченко,B,,
Yes,Raw,DQ,Nikolay Mikhalchenko,Amateur Open,1985,Russia,87.8,,,,,-152.5,-155,-155,,,,,,,90,M,Николай Михальченко,B,,
Yes,Raw,DQ,Maksim Turchanovskiy,Amateur Open,1979,Russia,89.15,,,,,-155,-155,-155,,,,,,,90,M,Максим Турчановский,B,,
Yes,Raw,1,Evgeniy Zverev,Amateur Masters 45-49,1967,Russia,88.35,,,,,170,175,-180,175,,,,,175,90,M,Евгений Зверев,B,,
Yes,Raw,2,Sergey Voronets,Amateur Masters 40-44,1971,Russia,87.6,,,,,155,160,-165,160,,,,,160,90,M,Сергей Воронец,B,,
Yes,Raw,3,Evgeniy Svoboda,Amateur Masters 40-44,1972,Russia,89.4,,,,,140,150,-155,150,,,,,150,90,M,Евгений Свобода,B,,
Yes,Raw,4,Aleksey Usmanov,Amateur Masters 40-44,1973,Russia,88.3,,,,,130,137.5,140,140,,,,,140,90,M,Алексей Усманов,B,,
Yes,Raw,5,Vsevolod Sandomirskiy,Amateur Masters 40-44,1969,Russia,84.2,,,,,130,-145,-145,130,,,,,130,90,M,Всеволод Сандомирский,B,,
Yes,Raw,6,Vladimir Chumakov,Amateur Masters 45-49,1964,Russia,87.9,,,,,120,127.5,130,130,,,,,130,90,M,Владимир Чумаков,B,,
Yes,Raw,7,Batmunkh Gunchinsuren,Amateur Masters 45-49,1964,Mongolia,82.75,,,,,97.5,105,-110,105,,,,,105,90,M,,B,,
Yes,Raw,1,Aleksadr Razmakhnin,Amateur Masters 60-64,1951,Russia,85.1,,,,,110,-115,115,115,,,,,115,90,M,Алексадр Размахнин,B,,
Yes,Raw,1,Ilya Epikhin,Amateur Teen 16-17,1996,Russia,95.1,,,,,105,110,-115,110,,,,,110,100,M,Илья Епихин,B,,
Yes,Raw,1,Aleksandr Leonenko,Amateur Juniors 20-23,1992,Russia,98.55,,,,,155,-165,-165,155,,,,,155,100,M,Александр Леоненко,B,,
Yes,Raw,2,Mikhail Kovalev,Amateur Juniors 20-23,1990,Russia,90.8,,,,,120,-125,-125,120,,,,,120,100,M,Михаил Ковалев,B,,
Yes,Raw,1,Konstantin Kovazhenko,Amateur Open,1978,Russia,93.1,,,,,190,-200,-200,190,,,,,190,100,M,Константин Коваженко,B,,
Yes,Raw,2,Aleksandr Bragin,Amateur Open,1965,Russia,98.95,,,,,180,187.5,-192.5,187.5,,,,,187.5,100,M,Александр Брагин,B,,
Yes,Raw,3,Khayrullo Shakiev,Amateur Open,1983,Russia,98.5,,,,,170,180,-187.5,180,,,,,180,100,M,Хайрулло Шакиев,B,,
Yes,Raw,4,Evgeniy Kava,Amateur Open,1982,Russia,99.05,,,,,162.5,167.5,-170,167.5,,,,,167.5,100,M,Евгений Кава,B,,
Yes,Raw,5,Maksim Vanin,Amateur Open,1980,Russia,97.6,,,,,155,162.5,-167.5,162.5,,,,,162.5,100,M,Максим Ванин,B,,
Yes,Raw,6,Anton Epikhin,Amateur Open,1988,Russia,99.45,,,,,155,162.5,,162.5,,,,,162.5,100,M,Антон Епихин,B,,
Yes,Raw,7,Andrey Germanovich,Amateur Open,1979,Russia,99.85,,,,,155,-162.5,,155,,,,,155,100,M,Андрей Германович,B,,
Yes,Raw,8,Anatoliy Matyunin,Amateur Open,1986,Russia,91.3,,,,,135,142.5,-152.5,142.5,,,,,142.5,100,M,Анатолий Матюнин,B,,
Yes,Raw,9,Nikita Mirzaev,Amateur Open,1989,Russia,97.05,,,,,125,135,142.5,142.5,,,,,142.5,100,M,Никита Мирзаев,B,,
Yes,Raw,1,Vasiliy Synkov,Amateur Masters 40-44,1972,Russia,99.1,,,,,180,190,200,200,,,,,200,100,M,Василий Сынков,B,,
Yes,Raw,2,Aleksandr Bragin,Amateur Masters 45-49,1965,Russia,98.95,,,,,180,187.5,-192.5,187.5,,,,,187.5,100,M,Александр Брагин,B,,
Yes,Raw,3,Gennadiy Dortman,Amateur Masters 45-49,1965,Russia,96.9,,,,,140,147.5,150,150,,,,,150,100,M,Геннадий Дортман,B,,
Yes,Raw,4,Aleksandr Kiselev,Amateur Masters 40-44,1968,Russia,91.4,,,,,95,105,,105,,,,,105,100,M,Александр Киселев,B,,
Yes,Raw,1,Dmitriy Kruglov,Amateur Masters 55-59,1955,Russia,94.85,,,,,-100,100,-110,100,,,,,100,100,M,Дмитрий Круглов,B,,
Yes,Raw,1,Vladimir Samoylov,Amateur Juniors 20-23,1991,Russia,107.2,,,,,167.5,-170,-170,167.5,,,,,167.5,110,M,Владимир Самойлов,B,,
Yes,Raw,2,Yuriy Burkunov,Amateur Juniors 20-23,1989,Russia,102.9,,,,,150,160,-167.5,160,,,,,160,110,M,Юрий Буркунов,B,,
Yes,Raw,1,Andrey Bondarenko,Amateur Open,1981,Russia,107.7,,,,,185,195,-202.5,195,,,,,195,110,M,Андрей Бондаренко,B,,
Yes,Raw,2,Maksim Starosvetskiy,Amateur Open,1975,Russia,105.05,,,,,-170,175,-180,175,,,,,175,110,M,Максим Старосветский,B,,
Yes,Raw,3,Daniil Bashitov,Amateur Open,1983,Russia,108.55,,,,,160,167.5,-172.5,167.5,,,,,167.5,110,M,Даниил Башитов,B,,
Yes,Raw,4,Yuriy Burkunov,Amateur Open,1989,Russia,102.9,,,,,150,160,-167.5,160,,,,,160,110,M,Юрий Буркунов,B,,
Yes,Raw,5,Vyacheslav Konovalenko,Amateur Open,1973,Russia,103.5,,,,,160,-167.5,-167.5,160,,,,,160,110,M,Вячеслав Коноваленко,B,,
Yes,Raw,6,Sergey Kolmychkov,Amateur Open,1976,Russia,104.2,,,,,150,160,-167.5,160,,,,,160,110,M,Сергей Колмычков,B,,
Yes,Raw,7,Oleg Ilyushin,Amateur Open,1984,Russia,106.6,,,,,160,-167.5,-167.5,160,,,,,160,110,M,Олег Илюшин,B,,
Yes,Raw,8,Vitaliy Shevelev,Amateur Open,1979,Russia,107.25,,,,,150,160,-167.5,160,,,,,160,110,M,Виталий Шевелев,B,,
Yes,Raw,9,Nikita Shevelev,Amateur Open,1985,Russia,108.9,,,,,135,147.5,150,150,,,,,150,110,M,Никита Шевелев,B,,
Yes,Raw,10,Pavel Kapustin,Amateur Open,1979,Russia,105.5,,,,,130,135,-137.5,135,,,,,135,110,M,Павел Капустин,B,,
Yes,Raw,11,Aleksandr Abramov,Amateur Open,1987,Russia,107.7,,,,,110,120,-130,120,,,,,120,110,M,Александр Абрамов,B,,
Yes,Raw,DQ,Oleg Ilyushin,Amateur Open,1984,Russia,106.6,,,,,,,,,,,,,,110,M,Олег Илюшин,B,,
Yes,Raw,DQ,Vasiliy Tolbakov,Amateur Masters 55-59,1955,Russia,104.15,,,,,-120,-120,-120,,,,,,,110,M,Василий Тольбаков,B,,
Yes,Raw,1,Ivan Tsimbal,Amateur Teen 16-17,1996,Russia,125,,,,,110,120,130,130,,,,,130,125,M,Иван Цимбал,B,-132.5,
Yes,Raw,1,Denis Likhachev,Amateur Open,1987,Russia,120.4,,,,,175,180,185,185,,,,,185,125,M,Денис Лихачев,B,,
Yes,Raw,2,Grigoriy Shevelev,Amateur Open,1982,Russia,120.5,,,,,175,185,-202.5,185,,,,,185,125,M,Григорий Шевелев,B,,
Yes,Raw,3,Konstantin Starodubov,Amateur Open,1982,Russia,111.9,,,,,155,160,165,165,,,,,165,125,M,Константин Стародубов,B,,
Yes,Raw,4,Denis Petrusevich,Amateur Open,1981,Russia,110.1,,,,,-130,130,-150,130,,,,,130,125,M,Денис Петрусевич,B,,
Yes,Raw,5,Sergey Seliverstov,Amateur Open,1973,Russia,111.45,,,,,120,130,-135,130,,,,,130,125,M,Сергей Селиверстов,B,,
Yes,Raw,1,Aleksandr Okhrimenko,Amateur Juniors 20-23,1992,Russia,125.9,,,,,142.5,152.5,157.5,157.5,,,,,157.5,140,M,Александр Охрименко,B,,
Yes,Raw,1,Evgeniy Lomivorotov,Amateur Open,1984,Russia,128,,,,,165,-175,-175,165,,,,,165,140,M,Евгений Ломиворотов,B,,
Yes,Raw,DQ,Georgiy Lukin,Amateur Open,1984,Russia,132.5,,,,,-132.5,,,,,,,,,140,M,Георгий Лукин,B,,
Yes,Raw,1,Artem Karakulov,Amateur Open,1989,Russia,142.5,,,,,145,-160,160,160,,,,,160,140+,M,Артем Каракулов,B,,
No,Raw,1,Dmitriy Karlovskiy,Pro Open,1984,Russia,62.8,,,,,60,70,-75,70,,,,,70,67.5,M,Дмитрий Карловский,B,,
No,Raw,1,Sergey Zavarukhin,Pro Open,1973,Russia,73,,,,,90,100,-105,100,,,,,100,75,M,Сергей Заварухин,B,,
No,Raw,2,Ilya Anisimov,Pro Open,1986,Russia,71.45,,,,,-55,55,-65,55,,,,,55,75,M,Илья Анисимов,B,,
No,Raw,1,Evgeniy Bobin,Pro Masters 45-49,1965,Russia,84.25,,,,,90,-92.5,-92.5,90,,,,,90,90,M,Евгений Бобин,B,,
No,Raw,1,Ekaterina Schibrya,Pro Open,1986,Russia,58.4,,,,,92.5,-100,-100,92.5,,,,,92.5,60,F,Екатерина Щибря,B,,
No,Raw,1,Irina Nikulina,Pro Open,1988,Russia,82.5,,,,,120,126,-130,126,,,,,126,82.5,F,Ирина Никулина,B,,
No,Raw,2,Anna Slobodchikova,Pro Open,1981,Russia,80.9,,,,,65,70,,70,,,,,70,82.5,F,Анна Слободчикова,B,,
No,Raw,1,Konstantin Sobolev,Pro Teen 18-19,1994,Russia,66.2,,,,,105,-112.5,-112.5,105,,,,,105,67.5,M,Константин Соболев,B,,
No,Raw,1,Vyacheslav Khrychev,Pro Open,1984,Russia,67,,,,,140,150,-155,150,,,,,150,67.5,M,Вячеслав Хрычев,B,,
No,Raw,2,Evgeniy Sinko,Pro Open,1981,Russia,66.05,,,,,140,147.5,-152.5,147.5,,,,,147.5,67.5,M,Евгений Синько,B,,
No,Raw,1,Artem Malykh,Pro Juniors 20-23,1991,Russia,68,,,,,110,-115,-115,110,,,,,110,75,M,Артем Малых,B,,
No,Raw,1,Denis Makeev #2,Pro Open,1986,Russia,74.8,,,,,-150,155,162.5,162.5,,,,,162.5,75,M,Денис Макеев,B,,
No,Raw,2,Ilya Dugushkin,Pro Open,1986,Russia,73.6,,,,,-127.5,-127.5,127.5,127.5,,,,,127.5,75,M,Илья Дугушкин,B,,
No,Raw,DQ,Andrey Chalyy,Pro Open,1988,Russia,73.35,,,,,-152.5,-152.5,-152.5,,,,,,,75,M,Андрей Чалый,B,,
No,Raw,1,Aleksey Yachnev,Pro Masters 50-54,1961,Russia,74.15,,,,,120,130,-140,130,,,,,130,75,M,Алексей Ячнев,B,,
No,Raw,1,Andrey Berkovich,Pro Open,1972,Russia,80.5,,,,,172.5,-177.5,-177.5,172.5,,,,,172.5,82.5,M,Андрей Беркович,B,,
No,Raw,2,Viktor Sevostyanov,Pro Open,1983,Russia,81.5,,,,,150,160,-165,160,,,,,160,82.5,M,Виктор Севостьянов,B,,
No,Raw,3,Denis Kochmarev,Pro Open,1981,Russia,81.8,,,,,150,,,150,,,,,150,82.5,M,Денис Кочмарев,B,,
No,Raw,1,Andrey Berkovich,Pro Masters 40-44,1972,Russia,80.5,,,,,172.5,-177.5,-177.5,172.5,,,,,172.5,82.5,M,Андрей Беркович,B,,
No,Raw,DQ,Egor Pfeyfer,Pro Teen 16-17,1996,Russia,86.45,,,,,-100,-110,-110,,,,,,,90,M,Егор Пфейфер,B,,
No,Raw,1,Ruslan Marshalkin,Pro Juniors 20-23,1990,Russia,86.4,,,,,165,172.5,177.5,177.5,,,,,177.5,90,M,Руслан Маршалкин,B,,
No,Raw,2,Vladimir Kryttsev,Pro Juniors 20-23,1990,Russia,88,,,,,130,142.5,150,150,,,,,150,90,M,Владимир Крытцев,B,,
No,Raw,1,Ivan Kudelin,Pro Open,1972,Russia,89.5,,,,,195,205,-207.5,205,,,,,205,90,M,Иван Куделин,B,,
No,Raw,2,Stepan Borovskiy,Pro Open,1986,Russia,88.7,,,,,180,190,192.5,192.5,,,,,192.5,90,M,Степан Боровский,B,,
No,Raw,3,Asif Kadimov,Pro Open,1986,Russia,87.25,,,,,175,-180,180,180,,,,,180,90,M,Асиф Кадимов,B,,
No,Raw,1,Ivan Kudelin,Pro Masters 40-44,1972,Russia,89.5,,,,,195,205,-207.5,205,,,,,205,90,M,Иван Куделин,B,,
No,Raw,1,Vladimir Vizgin,Pro Masters 60-64,1952,Russia,90,,,,,145,-155,-155,145,,,,,145,90,M,Владимир Визгин,B,,
No,Raw,1,Vladislav Kravchenko #3,Pro Teen 16-17,1996,Russia,96.35,,,,,130,-145,-145,130,,,,,130,100,M,Владислав Кравченко,B,,
No,Raw,1,Aleksandr Avsyanovich,Pro Juniors 20-23,1991,Russia,95.5,,,,,130,140,-145,140,,,,,140,100,M,Александр Авсянович,B,,
No,Raw,1,Anton Rybalov,Pro Open,1986,Russia,98.35,,,,,222.5,230,-240,230,,,,,230,100,M,Антон Рыбалов,B,,
No,Raw,2,Ivan Vasyunin,Pro Open,1983,Russia,97.8,,,,,220,227.5,-237.5,227.5,,,,,227.5,100,M,Иван Васюнин,B,,
No,Raw,3,Dmitriy Timofeev,Pro Open,1981,Russia,98.85,,,,,190,200,-205,200,,,,,200,100,M,Дмитрий Тимофеев,B,,
No,Raw,4,Petr Mikhaylov,Pro Open,1975,Russia,95.15,,,,,190,195,-200,195,,,,,195,100,M,Петр Михайлов,B,,
No,Raw,5,Sergey Bespalov,Pro Open,1979,Russia,93.35,,,,,150,-160,165,165,,,,,165,100,M,Сергей Беспалов,B,,
No,Raw,6,Mikhail Makarov,Pro Open,1985,Russia,99.25,,,,,165,-175,-175,165,,,,,165,100,M,Михаил Макаров,B,,
No,Raw,1,Vladimir Petrov,Pro Masters 40-44,1968,Russia,98.8,,,,,160,170,-180,170,,,,,170,100,M,Владимир Петров,B,,
No,Raw,1,Dmitriy Batranov,Pro Open,1976,Russia,108.75,,,,,210,215,-220,215,,,,,215,110,M,Дмитрий Батранов,B,,
No,Raw,2,Anton Guselnikov,Pro Open,1982,Russia,103.55,,,,,195,205,-210,205,,,,,205,110,M,Антон Гусельников,B,,
No,Raw,3,Evgeniy Kosik,Pro Open,1983,Russia,109.15,,,,,190,202.5,-210,202.5,,,,,202.5,110,M,Евгений Косик,B,,
No,Raw,4,Viktor Prisyazhnyuk,Pro Open,1976,Russia,104.05,,,,,180,185,-190,185,,,,,185,110,M,Виктор Присяжнюк,B,,
No,Raw,5,Sergey Manzyrev,Pro Open,1986,Russia,101.5,,,,,170,-175,175,175,,,,,175,110,M,Сергей Манзырев,B,,
No,Raw,DQ,Pavel Efremov,Pro Open,1988,Russia,106.95,,,,,-160,,,,,,,,,110,M,Павел Ефремов,B,,
No,Raw,1,Mikhail Ishechkin,Pro Masters 50-54,1962,Russia,108.05,,,,,160,165,170,170,,,,,170,110,M,Михаил Ишечкин,B,,
No,Raw,1,Nikita Paskhalnoy,Pro Teen 18-19,1994,Russia,110.15,,,,,152.5,160,-165,160,,,,,160,125,M,Никита Пасхальной,B,,
No,Raw,1,Aleksey Nelyubov,Pro Juniors 20-23,1990,Russia,121.6,,,,,180,195,-210,195,,,,,195,125,M,Алексей Нелюбов,B,,
No,Raw,1,Aleksey Veritsunov,Pro Open,1976,Russia,122.1,,,,,232.5,242.5,-250,242.5,,,,,242.5,125,M,Алексей Верицунов,B,,
No,Raw,2,Konstantin Elshin,Pro Open,1986,Russia,120.3,,,,,230,240,-247.5,240,,,,,240,125,M,Константин Ельшин,B,,
No,Raw,3,Roman Nikishin,Pro Open,1982,Russia,124.3,,,,,190,200,-210,200,,,,,200,125,M,Роман Никишин,B,,
No,Raw,1,Aleksandr Elshin,Pro Juniors 20-23,1992,Russia,130.75,,,,,170,180,190,190,,,,,190,140,M,Александр Ельшин,B,,
No,Raw,1,Stanislav Alekseykin,Pro Open,1982,Russia,136.7,,,,,-232.5,232.5,-237.5,232.5,,,,,232.5,140,M,Станислав Алексейкин,B,,
No,Raw,2,Sergey Grebenkin,Pro Open,1973,Russia,126.25,,,,,200,215,-232.5,215,,,,,215,140,M,Сергей Гребенкин,B,,
No,Raw,1,Sergey Kuschev,Pro Open,1967,Russia,150.8,,,,,255,265,-275,265,,,,,265,140+,M,Сергей Кущев,B,,
No,Raw,1,Sergey Kuschev,Pro Masters 45-49,1967,Russia,150.8,,,,,255,265,-275,265,,,,,265,140+,M,Сергей Кущев,B,,
No,Raw,1,Dmitriy Solonnikov,Pro Open,1986,Russia,75,,,,,,,,,230,245,-260,245,245,75,M,Дмитрий Солонников,D,,
No,Raw,1,Vyacheslav Alekseev,Pro Juniors 20-23,1990,Russia,87.35,,,,,,,,,245,280,-287.5,280,280,90,M,Вячеслав Алексеев,D,,
No,Raw,1,Vyacheslav Alekseev,Pro Open,1990,Russia,87.35,,,,,,,,,245,280,-287.5,280,280,90,M,Вячеслав Алексеев,D,,
No,Raw,1,Mikhail Makarov,Pro Open,1985,Russia,99.25,,,,,,,,,170,210,250,250,250,100,M,Михаил Макаров,D,,
No,Raw,2,Sarmen Artanyan,Pro Open,1986,Russia,92.3,,,,,,,,,160,185,-200,185,185,100,M,Сармен Артанян,D,,
No,Raw,1,Aleksandr Abramov,Pro Open,1987,Russia,114.2,,,,,,,,,250,-265,-265,250,250,125,M,Александр Абрамов,D,,
No,Raw,1,Anton Dementev,Pro Open,1984,Russia,128.25,,,,,,,,,327.5,340,350,350,350,140,M,Антон Дементьев,D,,
No,Raw,1,Vladimir Nikolaev,Pro Juniors 20-23,1990,Russia,89.9,230,240,250,250,,,,,,,,,250,90,M,Владимир Николаев,S,,
No,Raw,1,Vladimir Nikolaev,Pro Open,1990,Russia,89.9,230,240,250,250,,,,,,,,,250,90,M,Владимир Николаев,S,,
No,Raw,2,Dmitriy Savchenko,Pro Open,1981,Russia,86.05,100,,,100,,,,,,,,,100,90,M,Дмитрий Савченко,S,,
No,Raw,1,Sarmen Artanyan,Pro Open,1986,Russia,92.3,160,180,-192.5,180,,,,,,,,,180,100,M,Сармен Артанян,S,,
Yes,Raw,1,Ekaterina Payvina,Amateur Teen 16-17,1995,Russia,51.6,,,,,,,,,70,80,87.5,87.5,87.5,52,F,Екатерина Пайвина,D,,90
Yes,Raw,1,Vladislav Mavrin #1,Amateur Teen 16-17,1995,Russia,66.6,,,,,,,,,152.5,-162.5,-162.5,152.5,152.5,67.5,M,Владислав Маврин,D,,
Yes,Raw,DQ,Vyacheslav Piskalov,Amateur Masters 50-54,1958,Russia,67.1,,,,,,,,,-220,,,,,67.5,M,Вячеслав Пискалов,D,,
Yes,Raw,1,Demur Khorava,Amateur Teen 16-17,1995,Russia,68,,,,,,,,,150,165,175,175,175,75,M,Демур Хорава,D,,
Yes,Raw,1,Aleksey Zabolotskiy,Amateur Juniors 20-23,1993,Russia,80.2,,,,,,,,,-180,180,-190,180,180,82.5,M,Алексей Заболоцкий,D,,
Yes,Raw,1,Aleksey Vinyukov,Amateur Open,1973,Russia,79.1,,,,,,,,,-180,180,-190,180,180,82.5,M,Алексей Винюков,D,,
Yes,Raw,2,Sergey Zhuganenko,Amateur Open,1987,Russia,79.2,,,,,,,,,160,170,-180,170,170,82.5,M,Сергей Жуганенко,D,,
Yes,Raw,1,Evgeniy Svoboda,Amateur Open,1972,Russia,89.25,,,,,,,,,170,205,225,225,225,90,M,Евгений Свобода,D,,
Yes,Raw,2,Andrey Vereschagin,Amateur Open,1985,Russia,88.15,,,,,,,,,200,215,-235,215,215,90,M,Андрей Верещагин,D,,
Yes,Raw,3,Igor Koscheev,Amateur Open,1979,Russia,87.8,,,,,,,,,170,180,190,190,190,90,M,Игорь Кощеев,D,,
Yes,Raw,4,Aleksandr Anosov,Amateur Open,1979,Russia,85.7,,,,,,,,,210,220,-230,220,220,90,M,Александр Аносов,D,,
Yes,Raw,1,Evgeniy Svoboda,Amateur Masters 40-44,1972,Russia,89.25,,,,,,,,,170,205,225,225,225,90,M,Евгений Свобода,D,,
Yes,Raw,1,Aleksandr Kiselev,Amateur Open,1968,Russia,91.3,,,,,,,,,140,160,-170,160,160,100,M,Александр Киселев,D,,
Yes,Raw,1,Aleksandr Kiselev,Amateur Masters 40-44,1968,Russia,91.3,,,,,,,,,140,160,-170,160,160,100,M,Александр Киселев,D,,
Yes,Raw,1,Yuriy Zherebtsov,Amateur Open,1974,Russia,106.8,,,,,,,,,190,220,240,240,240,110,M,Юрий Жеребцов,D,,
Yes,Raw,2,Andrey Germanovich,Amateur Open,1979,Russia,100.3,,,,,,,,,220,230,,230,230,110,M,Андрей Германович,D,,
No,Raw,1,Viktoriya Kurpatova,Pro Juniors 20-23,1992,Russia,51.75,90,-100,-100,90,,,,,,,,,90,52,F,Виктория Курпатова,S,,
No,Raw,1,Vyacheslav Piskalov,Pro Open,1958,Russia,80.9,225,240,250,250,,,,,,,,,250,82.5,M,Вячеслав Пискалов,S,,
No,Raw,1,Vyacheslav Piskalov,Pro Masters 50-54,1958,Russia,80.9,225,240,250,250,,,,,,,,,250,82.5,M,Вячеслав Пискалов,S,,
No,Raw,1,Evgeniy Svoboda,Pro Open,1972,Russia,89.25,160,175,185,185,,,,,,,,,185,90,M,Евгений Свобода,S,,
No,Raw,1,Evgeniy Svoboda,Pro Masters 40-44,1972,Russia,89.25,160,175,185,185,,,,,,,,,185,90,M,Евгений Свобода,S,,
No,Multi-ply,1,Vladislav Filipovich,Pro Juniors 20-23,1991,Russia,88.75,345,360,,360,,,,,,,,,360,90,M,Владислав Филипович,S,,
No,Multi-ply,1,Vladislav Filipovich,Pro Open,1991,Russia,88.75,345,360,,360,,,,,,,,,360,90,M,Владислав Филипович,S,,
Yes,Multi-ply,1,Aleksey Rodik-Knyazev,Amateur Open,1981,Russia,80.15,,,,,,,,,190,215,227.5,227.5,227.5,82.5,M,Алексей Родик-Князев,D,,
Yes,Multi-ply,1,Evgeniy Svoboda,Amateur Open,1972,Russia,88.65,,,,,,,,,205,235,,235,235,90,M,Евгений Свобода,D,,
Yes,Multi-ply,2,Artem Bykhovets,Amateur Open,1983,Russia,89.25,,,,,,,,,220,250,270.5,270.5,270.5,90,M,Артем Быховец,D,,-280.5
Yes,Multi-ply,1,Evgeniy Svoboda,Amateur Masters 40-44,1972,Russia,88.65,,,,,,,,,205,235,,235,235,90,M,Евгений Свобода,D,,
Yes,Multi-ply,1,Evgeniy Svoboda,Amateur Open,1972,Russia,88.65,225,250,-270,250,,,,,,,,,250,90,M,Евгений Свобода,S,,
Yes,Multi-ply,1,Evgeniy Svoboda,Amateur Masters 40-44,1972,Russia,88.65,225,250,-270,250,,,,,,,,,250,90,M,Евгений Свобода,S,,
Yes,Multi-ply,1,Konstantin Zhilkin,Amateur Open,1979,Russia,92.5,160,175,-190,175,,,,,,,,,175,100,M,Константин Жилкин,S,,
No,Multi-ply,1,Aleksandr Ignatov,Pro Teen 14-15,1997,Russia,52,,,,,105,-120,-120,105,,,,,105,52,M,Александр Игнатов,B,,
No,Multi-ply,1,Maksim Polyakov,Pro Teen 16-17,1995,Russia,59.35,,,,,122.5,-132.5,-132.5,122.5,,,,,122.5,60,M,Максим Поляков,B,,
No,Multi-ply,2,Aleksandr Pospelov,Pro Juniors 20-23,1992,Russia,66.4,,,,,135,137.5,-145,137.5,,,,,137.5,67.5,M,Александр Поспелов,B,,
No,Multi-ply,3,Mikhail Zaytsev,Pro Juniors 20-23,1991,Russia,67,,,,,115,122.5,127.5,127.5,,,,,127.5,67.5,M,Михаил Зайцев,B,,
No,Multi-ply,1,Ilya Teplov,Pro Juniors 20-23,1992,Russia,74.1,,,,,-165,165,180,180,,,,,180,75,M,Илья Теплов,B,,
No,Multi-ply,1,Yevgeny Gansh,Pro Open,1992,Russia,72.6,,,,,200,207.5,,207.5,,,,,207.5,75,M,Евгений Ганш,B,,
No,Multi-ply,2,Sergey Fedoseev,Pro Open,1982,Russia,75,,,,,-152.5,-152.5,152.5,152.5,,,,,152.5,75,M,Сергей Федосеев,B,,
No,Multi-ply,3,Viktor Shmatkov,Pro Open,1982,Russia,74.3,,,,,-140,140,-152.5,140,,,,,140,75,M,Виктор Шматков,B,,
No,Multi-ply,1,Denis Khomutov,Pro Juniors 20-23,1991,Russia,80.1,,,,,190,-200,200,200,,,,,200,82.5,M,Денис Хомутов,B,,
No,Multi-ply,1,Denis Alypov,Pro Open,1992,Russia,82.5,,,,,-270,270,-290,270,,,,,270,82.5,M,Денис Алыпов,B,,
No,Multi-ply,2,Aleksandr Nikitin,Pro Open,1996,Russia,81.4,,,,,195,-205,-205,195,,,,,195,82.5,M,Александр Никитин,B,,
No,Multi-ply,3,Ivan Kosyakin,Pro Open,1990,Russia,77.2,,,,,175,182.5,-190,182.5,,,,,182.5,82.5,M,Иван Косякин,B,,
No,Multi-ply,4,Yuriy Mikhaylov,Pro Open,1987,Russia,80.4,,,,,170,-180,,170,,,,,170,82.5,M,Юрий Михайлов,B,,
No,Multi-ply,1,Evgeniy Nechaev,Pro Open,1978,Russia,89.1,,,,,300,-310,-310,300,,,,,300,90,M,Евгений Нечаев,B,,
No,Multi-ply,2,Aleksandr Savin,Pro Open,1986,Russia,90,,,,,-230,230,-235,230,,,,,230,90,M,Александр Савин,B,,
No,Multi-ply,3,Stepan Borovskiy,Pro Open,1986,Russia,88.7,,,,,225,-230,-235,225,,,,,225,90,M,Степан Боровский,B,,
No,Multi-ply,4,Dmitriy Savchenko,Pro Open,1981,Russia,84.35,,,,,160,170,180,180,,,,,180,90,M,Дмитрий Савченко,B,,
No,Multi-ply,1,Konstantin Verkhoglyadov,Pro Juniors 20-23,1990,Russia,97.4,,,,,212.5,-225,-225,212.5,,,,,212.5,100,M,Константин Верхоглядов,B,,
No,Multi-ply,1,Mikhail Ryzhkin,Pro Open,1984,Russia,98.3,,,,,-250,250,-262.5,250,,,,,250,100,M,Михаил Рыжкин,B,,
No,Multi-ply,1,Andrey Shelest,Pro Open,1987,Russia,108.3,,,,,230,240,-277.5,240,,,,,240,110,M,Андрей Шелест,B,,
No,Multi-ply,DQ,Ruslan Mukhin,Pro Open,1974,Russia,120.7,,,,,-330,-340,-350,,,,,,,125,M,Руслан Мухин,B,,
Yes,Multi-ply,1,Aleksandra Troshina,Amateur Open,1989,Russia,67.5,,,,,-70,70,-75,70,,,,,70,67.5,F,Александра Трошина,B,,
Yes,Multi-ply,1,Vladimir Pervyshin,Amateur Teen 16-17,1996,Russia,67.5,,,,,163,170,-175,170,,,,,170,67.5,M,Владимир Первышин,B,,
Yes,Multi-ply,1,Maksim Zelenin,Amateur Juniors 20-23,1992,Russia,65.7,,,,,140,152.5,-162.5,152.5,,,,,152.5,67.5,M,Максим Зеленин,B,,
Yes,Multi-ply,1,Viktor Zudilov,Amateur Teen 16-17,1996,Russia,74.5,,,,,130,-137.5,137.5,137.5,,,,,137.5,75,M,Виктор Зудилов,B,,
Yes,Multi-ply,1,Andrey Brazhnik,Amateur Open,1983,Russia,73.9,,,,,-195,202.5,-210,202.5,,,,,202.5,75,M,Андрей Бражник,B,,
Yes,Multi-ply,2,Evgeniy Zuev,Amateur Open,1985,Russia,74.05,,,,,190,195,200,200,,,,,200,75,M,Евгений Зуев,B,,
Yes,Multi-ply,1,Aleksey Rodik-Knyazev,Amateur Open,1981,Russia,79.7,,,,,165,172.5,182.5,182.5,,,,,182.5,82.5,M,Алексей Родик-Князев,B,,
Yes,Multi-ply,1,Artem Bykhovets,Amateur Open,1983,Russia,88.55,,,,,220,-230,-230,220,,,,,220,90,M,Артем Быховец,B,,
Yes,Multi-ply,2,Evgeniy Svoboda,Amateur Open,1972,Russia,88.35,,,,,165,175,180,180,,,,,180,90,M,Евгений Свобода,B,,
Yes,Multi-ply,3,Konstantin Smirnov,Amateur Open,1962,Russia,86.85,,,,,145,-150,-160,145,,,,,145,90,M,Константин Смирнов,B,,
Yes,Multi-ply,4,Batmunkh Gunchinsuren,Amateur Open,1964,Mongolia,83,,,,,117.5,-125,125,125,,,,,125,90,M,,B,,
Yes,Multi-ply,1,Evgeniy Svoboda,Amateur Masters 40-44,1972,Russia,88.35,,,,,165,175,180,180,,,,,180,90,M,Евгений Свобода,B,,
Yes,Multi-ply,2,Mikhail Turkin,Amateur Masters 40-44,1969,Russia,89.25,,,,,180,-190,-190,180,,,,,180,90,M,Михаил Туркин,B,,
Yes,Multi-ply,3,Batmunkh Gunchinsuren,Amateur Masters 45-49,1964,Mongolia,83,,,,,117.5,-125,125,125,,,,,125,90,M,,B,,
Yes,Multi-ply,1,Konstantin Smirnov,Amateur Masters 50-54,1962,Russia,86.85,,,,,145,-150,-160,145,,,,,145,90,M,Константин Смирнов,B,,
Yes,Multi-ply,1,Vasiliy Synkov,Amateur Open,1972,Russia,99.9,,,,,240,250,257.5,257.5,,,,,257.5,100,M,Василий Сынков,B,,
Yes,Multi-ply,2,Aleksandr Kisilev,Amateur Open,1968,Russia,91.55,,,,,110,-120,120,120,,,,,120,100,M,Александр Кисилев,B,,
Yes,Multi-ply,1,Vasiliy Synkov,Amateur Masters 40-44,1972,Russia,99.9,,,,,240,250,257.5,257.5,,,,,257.5,100,M,Василий Сынков,B,,
Yes,Multi-ply,2,Aleksandr Kisilev,Amateur Masters 40-44,1968,Russia,91.55,,,,,110,-120,120,120,,,,,120,100,M,Александр Кисилев,B,,
Yes,Multi-ply,DQ,Vitaliy Gritskevich,Amateur Masters 40-44,1969,Russia,107.45,,,,,-235,-235,-235,,,,,,,110,M,Виталий Грицкевич,B,,
