﻿BDFPF POWERLIFTING UNEQUIPPED 2010
                                                                                                            SQ      BE      DL      TOT     POINTS
1                                    58,5   Wuyts           Helen        Gilberts Gym     18   T3   57,6    120     72,5    165     357,5   318,25
1                                    70     Verkain         Jasmien      Isogym           18   T3   67,1    60      42,5    130     232,5   181,98
                                                                                                                            135
1                                    70     Lerot           Viviane      Castors          51   M3   65,8    62,5    47,5    100     182,5   167,14
1                                    67,5   Slachmuylders   Bjorn        Planet Fitness   21   JR   67,5    140     117,5   190     447,5   324,80
1                                    67,5   Peeters         Alan         Gilberts Gym     16   T2   66,7    120     80      155     355     261,20
                                                                                                                            156
1                                    67,5   Eeckhout        Laurens      Healtfactor      14   T1   64,0    100     75      115     290     221,13
                                                                                                                            120
1                                    75     Marien          Lenn         Gilberts Gym     18   T3   74,4    170     110     200     480     320,98
1                                    75     Callemeyn       Johny        Fit 4 fun        56   M4   73,5    155     115     180     450     304,18
                                                                                                                    115,5
2                                    75     Lefebvre        Jonas        KBBC             18   T3   72,2    110     95      160     365     250,06
1                                    82,5   Sudarminto      Indra        Planet Fitness   19   T3   79,8    190     117,5   235     542,5   344,63
                                                                                                            190,5   118
1                                    82,5   Hallewaert      Bart         Isogym           41   M1   80,6    172,5   137,5   232,5   542,5   341,50
1                                    82,5   Goethals        Dries        KBBC             24   SR   82,5    140     115     175     430     266,30
1                                    90     Verbeke         Beny         Isogym           44   M1   86,2    165     115     300     580     348,75
1                                    90     Boniver         Tim          Planet Fitness   21   JR   83,7    167,5   97,5    222,5   487,5   298,94
1                                    90     Ramboer         Maxim        Isogym           16   T2   86,8    110     80      165     330     212,50
1                                    100    Theyssens       Martin       Healtfactor      70   M7   91,1    147,5   107,5   155     410     238,29
1                                    110    Van Roy         Yannick      Planet Fitness   18   T3   104,5   192,5   122,5   237,5   552,5   301,16
                                                                                                                    123
1                                    110    Malotteau       Jean-Louis   Castors          46   M2   108,8   145     182,5   202,5   530     285,14
1                                    125    Collart         Jean-Luc     Castors          50   M3   120,8   272,5   190     280     742,5   390,70
1                                    125    Dechamps        Jerome       Castors          22   JR   122,9   255     142,5   272,5   670     351,01
1                                    125    Dechamps        Sebastien    Castors          16   T2   125,0   245     135     260     640     333,44
1                                    125    Duflon          David        KBBC             35   SR   110,7   135     135     160     430     230,35
RECORD
14 - 03 - 2010  Aiseau
