Division,WeightClassKg,Place,Name,Team,BodyweightKg,Best3SquatKg,Best3BenchKg,Best3DeadliftKg,TotalKg,Equipment,Event,Sex,BirthDate
Boys,51.71,1,Christopher Cancino,San Antonio Cole,51.53,136.08,99.79,136.08,371.95,Single-ply,SBD,M,
Boys,51.71,2,Anthony Ramirez,San Antonio East Central,49.99,113.4,92.99,147.42,353.8,Single-ply,SBD,M,
Boys,51.71,3,Jesse Ortiz,Jourdanton,51.17,108.86,70.31,120.2,299.37,Single-ply,SBD,M,
Boys,55.79,1,Angelo Legaspe,San Antonio Cole,54.88,151.95,97.52,151.95,401.43,Single-ply,SBD,M,
Boys,55.79,2,Colten Brown,Jourdanton,55.43,133.81,74.84,138.35,347,Single-ply,SBD,M,
Boys,55.79,3,Silas Inclan,San Antonio Southside,55.16,131.54,65.77,138.35,335.66,Single-ply,SBD,M,
Boys,55.79,4,Braden Cayce,Wimberley,52.89,136.08,65.77,129.27,331.12,Single-ply,SBD,M,
Boys,59.87,1,Ethan Brown,Bandera,56.52,158.76,104.33,185.97,449.06,Single-ply,SBD,M,
Boys,59.87,2,Joey Flewellen,Bandera,57.06,111.13,79.38,136.08,326.59,Single-ply,SBD,M,
Boys,67.13,1,Tiago Ogden,San Antonio Cole,66.59,165.56,117.93,197.31,480.81,Single-ply,SBD,M,
Boys,67.13,2,Jayden Ramos,San Antonio East Central,65.5,183.7,117.93,176.9,478.54,Single-ply,SBD,M,
Boys,67.13,3,Jacob Rodriguez #17,San Antonio Southside,65.68,197.31,97.52,174.63,469.47,Single-ply,SBD,M,
Boys,67.13,4,Rafael Rivero,San Antonio Cole,67.13,165.56,88.45,167.83,421.84,Single-ply,SBD,M,
Boys,74.84,1,Christopher Rodriguez #4,San Antonio Southside,70.4,215.46,122.47,206.38,544.31,Single-ply,SBD,M,
Boys,74.84,2,Joseph Hernandez,Jourdanton,70.49,174.63,124.74,215.46,514.83,Single-ply,SBD,M,
Boys,74.84,3,Danny Freeman,Bandera,70.94,188.24,99.79,176.9,464.93,Single-ply,SBD,M,
Boys,74.84,4,Chris Cannedy,Universal City Randolph,73.66,170.1,90.72,181.44,442.25,Single-ply,SBD,M,
Boys,74.84,5,Patrick Logan,San Antonio Cole,72.85,151.95,97.52,183.7,433.18,Single-ply,SBD,M,
Boys,74.84,6,Daniel Min,Universal City Randolph,72.94,167.83,102.06,156.49,426.38,Single-ply,SBD,M,
Boys,74.84,7,Rhys Bray,Universal City Randolph,74.48,158.76,79.38,170.1,408.23,Single-ply,SBD,M,
Boys,74.84,8,Samuel Lopez,San Antonio Cole,72.85,142.88,90.72,167.83,401.43,Single-ply,SBD,M,
Boys,74.84,9,Alex Zuniga,San Antonio Holy Cross,71.67,142.88,83.91,170.1,396.89,Single-ply,SBD,M,
Boys,74.84,10,Zachary Sanchez,San Antonio Cole,71.76,151.95,72.57,163.29,387.82,Single-ply,SBD,M,
Boys,74.84,11,Cody Jureczki,Bandera,68.67,136.08,74.84,165.56,376.48,Single-ply,SBD,M,
Boys,74.84,12,Brett Shibiliski,Universal City Randolph,73.21,138.35,68.04,161.03,367.41,Single-ply,SBD,M,
Boys,74.84,DQ,Matthew Chavez,Bandera,73.39,181.44,,,,Single-ply,SBD,M,
Boys,82.1,1,JoAnthony Mendoza,Jourdanton,82.1,229.06,147.42,213.19,589.67,Single-ply,SBD,M,
Boys,82.1,2,Matthew Staton,Bandera,78.74,213.19,145.15,213.19,571.53,Single-ply,SBD,M,
Boys,82.1,3,Jacob Montoya,San Antonio Southside,79.65,204.12,136.08,208.65,548.85,Single-ply,SBD,M,
Boys,82.1,4,Jason Figeroua,San Antonio East Central,81.56,204.12,151.95,190.51,546.58,Single-ply,SBD,M,
Boys,82.1,5,Cole Mouser,Geronimo Navarro,80.92,185.97,136.08,197.31,519.36,Single-ply,SBD,M,
Boys,82.1,6,Diego Campos,Geronimo Navarro,79.74,192.78,117.93,204.12,514.83,Single-ply,SBD,M,
Boys,82.1,7,Timothy Donihoo,Yoakum,80.83,183.7,115.67,206.38,505.76,Single-ply,SBD,M,
Boys,82.1,8,Langston Strable,Universal City Randolph,78.38,192.78,99.79,197.31,489.88,Single-ply,SBD,M,
Boys,82.1,9,George Cabasos,Bandera,78.74,183.7,86.18,154.22,424.11,Single-ply,SBD,M,
Boys,82.1,10,Nathaniel Callahan,San Antonio Cole,76.66,136.08,52.16,158.76,347,Single-ply,SBD,M,
Boys,82.1,11,Caleb Glaser,San Antonio Cole,82.01,108.86,68.04,142.88,319.78,Single-ply,SBD,M,
Boys,89.81,1,Nathaniel Arias,Jourdanton,82.55,251.74,163.29,242.67,657.71,Single-ply,SBD,M,
Boys,89.81,2,Nathan Peralta,San Antonio Southside,86.55,251.74,149.69,249.48,650.91,Single-ply,SBD,M,
Boys,89.81,3,Caden Bosanko,San Antonio East Central,85.28,258.55,131.54,204.12,594.21,Single-ply,SBD,M,
Boys,89.81,4,Padwa Nunez,Universal City Randolph,87.09,217.72,129.27,204.12,551.11,Single-ply,SBD,M,
Boys,89.81,5,Matt Richardson,Geronimo Navarro,87.72,215.46,142.88,190.51,548.85,Single-ply,SBD,M,
Boys,89.81,6,Xavier Tijerina,Jourdanton,89.81,199.58,133.81,208.65,542.04,Single-ply,SBD,M,
Boys,89.81,7,Mack Berry,Geronimo Navarro,86.91,190.51,136.08,213.19,539.77,Single-ply,SBD,M,
Boys,89.81,8,Sebastian Martinez,San Antonio East Central,83.91,185.97,117.93,190.51,494.42,Single-ply,SBD,M,
Boys,89.81,9,Jack Boyle,Wimberley,84.37,183.7,117.93,183.7,485.34,Single-ply,SBD,M,
Boys,89.81,10,John May,San Antonio East Central,84.1,183.7,102.06,185.97,471.74,Single-ply,SBD,M,
Boys,89.81,11,Wyatt Franchione,Wimberley,88.81,176.9,111.13,183.7,471.74,Single-ply,SBD,M,
Boys,89.81,12,Sam Oakland,Universal City Randolph,84.55,149.69,83.91,158.76,392.36,Single-ply,SBD,M,
Boys,89.81,13,Kamren Meyer,Yoakum,89.36,127.01,86.18,136.08,349.27,Single-ply,SBD,M,
Boys,89.81,14,Zach Staley,Jourdanton,89.81,129.27,77.11,122.47,328.85,Single-ply,SBD,M,
Boys,89.81,15,Jack Meyer,Yoakum,89.72,122.47,70.31,127.01,319.78,Single-ply,SBD,M,
Boys,89.81,DQ,Owen O'Neil,Wimberley,88.09,176.9,99.79,,,Single-ply,SBD,M,
Boys,89.81,DQ,Roman Lua,San Antonio East Central,88.9,,,,,Single-ply,SBD,M,
Boys,99.79,1,Donald Neal Parks,Jourdanton,99.79,229.06,133.81,215.46,578.33,Single-ply,SBD,M,
Boys,99.79,2,Cooper Awbrey,Jourdanton,90.26,210.92,138.35,201.85,551.11,Single-ply,SBD,M,
Boys,99.79,3,Nathan Min,Universal City Randolph,94.89,215.46,131.54,197.31,544.31,Single-ply,SBD,M,
Boys,99.79,4,Marcus Serda,San Antonio East Central,97.61,183.7,136.08,222.26,542.04,Single-ply,SBD,M,
Boys,99.79,5,Luke Glaser,San Antonio Cole,94.53,201.85,106.59,226.8,535.24,Single-ply,SBD,M,
Boys,99.79,6,Kehinde Atunrase,San Antonio Cole,93.08,204.12,111.13,192.78,508.02,Single-ply,SBD,M,
Boys,99.79,7,Chase Howell,San Antonio Cole,93.17,185.97,108.86,199.58,494.42,Single-ply,SBD,M,
Boys,99.79,8,Jayson Clinton,San Antonio Cole,96.71,192.78,106.59,192.78,492.15,Single-ply,SBD,M,
Boys,99.79,9,Kyle Romans,Universal City Randolph,99.25,192.78,115.67,183.7,492.15,Single-ply,SBD,M,
Boys,99.79,10,Donovan Peters,Universal City Randolph,90.54,192.78,90.72,195.04,478.54,Single-ply,SBD,M,
Boys,99.79,11,Peti Valai,Universal City Randolph,94.71,192.78,106.59,158.76,458.13,Single-ply,SBD,M,
Boys,99.79,12,Elijah Will,San Antonio Cole,94.26,156.49,95.25,192.78,444.52,Single-ply,SBD,M,
Boys,99.79,13,Mathew Cruz,San Antonio East Central,95.62,129.27,88.45,133.81,351.53,Single-ply,SBD,M,
Boys,99.79,DQ,Daniel Trujilo,San Antonio East Central,92.99,229.06,117.93,,,Single-ply,SBD,M,
Boys,99.79,DQ,Callan Drum,Wimberley,92.9,195.04,95.25,,,Single-ply,SBD,M,
Boys,99.79,DQ,Leo Hernandez-Garza,San Antonio Cole,97.61,219.99,124.74,,,Single-ply,SBD,M,
Boys,109.77,1,Mauricio Pecina,Yoakum,104.05,272.16,149.69,229.06,650.91,Single-ply,SBD,M,
Boys,109.77,2,Gabriel Arguijo,Jourdanton,104.78,215.46,131.54,213.19,560.19,Single-ply,SBD,M,
Boys,109.77,3,Hector Herrera,Wimberley,108.14,231.33,111.13,210.92,553.38,Single-ply,SBD,M,
Boys,109.77,4,Ethan Boyd,Bandera,104.51,208.65,138.35,188.24,535.24,Single-ply,SBD,M,
Boys,109.77,5,Aaron Martinez,San Antonio Holy Cross,105.78,183.7,131.54,172.37,487.61,Single-ply,SBD,M,
Boys,124.74,1,Cody Wilkerson,San Antonio Southside,110.22,258.55,158.76,263.08,680.39,Single-ply,SBD,M,
Boys,124.74,2,Cyrus Vaughn,San Antonio Cole,114.85,226.8,147.42,226.8,601.01,Single-ply,SBD,M,
Boys,124.74,3,Jashandeep Sandhu,Jourdanton,111.86,165.56,165.56,185.97,517.1,Single-ply,SBD,M,
Boys,124.74,4,David Mendoza,San Antonio East Central,122.02,183.7,106.59,197.31,487.61,Single-ply,SBD,M,
Boys,124.74,5,Daniel Alonzo,San Antonio Holy Cross,116.12,170.1,111.13,192.78,474,Single-ply,SBD,M,
Boys,124.74,6,Reid Jackson,Wimberley,116.3,154.22,111.13,170.1,435.45,Single-ply,SBD,M,
Boys,124.74,7,Jeremy Austin,San Antonio Cole,117.21,149.69,88.45,161.03,399.16,Single-ply,SBD,M,
Boys,124.74,DQ,Jackson LaBouliere,Wimberley,116.03,161.03,95.25,,,Single-ply,SBD,M,
Boys,139.71,1,Noah Sizemore,Bandera,132.45,285.76,140.61,226.8,653.17,Single-ply,SBD,M,
Boys,139.71,2,Donald Jurek,San Antonio East Central,135.81,204.12,113.4,176.9,494.42,Single-ply,SBD,M,
Boys,139.71,3,Tyler Martinez #3,Jourdanton,139.71,142.88,133.81,185.97,462.66,Single-ply,SBD,M,
